8FF00160,C9249B96
8FF00161,C9243095
8FF00162,C9249C24
8FF00163,C9249B05
8FF00164,C92430BC
8FF00165,C924307A
8FF00166,C9249B12
8FF00167,C9249B29
8FF00168,C9249AFF
8FF00169,C92430F3
8FF0016A,C9249C48
8FF0016B,C9249BF4
8FF0016C,C924A0A8
8FF0016D,C9249C27
8FF0016E,C9249C13
8FF0016F,C9249C3C
8FF00170,C9249BA7
8FF00171,C9249BAD
8FF00172,C9242E4C
8FF00173,C9249C94
8FF00174,C9249BB9
8FF00175,C9249B77
8FF00176,C9248A4D
8FF00177,C924903A
8FF00178,C9248A38
8FF00179,C9248A36
8FF0017A,C9249AE6
8FF0017B,C9249C4E
8FF0017C,C9249B10
8FF0017D,C9249C0B
8FF0017E,C9243076
8FF0017F,C9249B02
8FF00180,C9248A20
8FF00181,C9248A2D
8FF00182,C9248A26
8FF00183,C924914C
8FF00184,C9249135
8FF00185,C9248A19
8FF00186,C9248ACE
8FF00187,C9248DB2
8FF00188,C9248A49
8FF00189,C9248AE0
8FF0018A,C9249C07
8FF0018B,C924A0AA
8FF0018C,C9242E70
8FF0018D,C9242E79
8FF0018E,C9249C2B
8FF0018F,C924309D
8FF00190,C9245133
8FF00191,C9245139
8FF00192,C9248AA2
8FF00193,C9248AC5
8FF00194,C9248AB3
8FF00195,C92490A5
8FF00196,C924909F
8FF0019A,C9249BF6
8FF0019B,C9249B8F
8FF0019C,C9242E76
8FF0019D,C9242E6F
8FF0019E,C9248E2C
8FF0019F,C9249C89
8FF001AC,C9249C0D
8FF001AD,C9248AB6
8FF001AE,C92490E2
8FF001AF,C92478B4
8FF001B0,C9242FE0
8FF001B1,C9242FD1
8FF001B2,C92482F9
8FF001B3,C9248525
8FF001B4,C9248A0A
8FF001B5,C92482ED
8FF001B6,C9243834
8FF001B7,C9243B4C
8FF001B8,C924A08F
8FF001B9,C9245AB6
8FF001BA,C9245AB8
8FF001BB,C92458D9
8FF001BC,C9249191
8FF001BD,C9248309
8FF001BE,C9243116
8FF001BF,C9249109
8FF001C0,C9248A8A
8FF001C1,C9248A83
8FF001C2,C92490F8
8FF001C3,C92490DA
8FF001C4,C92490D3
8FF001C5,C9243B1A
8FF001C6,C9249B78
8FF001C7,C9249C66
8FF001C8,C9249C88
8FF001C9,C9249C71
8FF001DA,C9245A7F
8FF001DB,C9245A85
8FF001DC,C9245A99
8FF001DD,C92456BB
8FF001DE,C92456B6
8FF001DF,C9245A92
8FF001E0,C9243B0E
8FF001E1,C9248A7C
8FF001E2,C9248A6A
8FF001E3,C9248A77
8FF001E4,C9245A5B
8FF001E5,C9245A30
8FF001E6,C92455F4
8FF001E7,C92455B7
8FF001E8,C92456C9
8FF001E9,C92456CE
8FF001EA,C9248DB6
8FF001EB,C9245134
8FF001EC,C92455DB
8FF001ED,C9249125
8FF001EE,C9249132
8FF001EF,C924916A
8FF001F0,C9249169
8FF001F1,C9248DDB
8FF001F2,C9249175
8FF001F3,C9249182
8FF001F4,C9245A61
8FF001F5,C9245A19
8FF001F6,C9245A3E
8FF001F7,C9249183
8FF001F8,C9245A1F
8FF001F9,C9245A21
8FF001FA,C9245A26
8FF001FB,C9243B39
8FF001FC,C9243B2A
8FF001FD,C9243B16
8FF001FE,C9243DC5
8FF001FF,C9243B6E
8FF00200,C9249C4C
8FF00201,C924700A
8FF00202,C9249902
8FF00203,C9245994
8FF00204,C92455E5
8FF00205,C9245A6C
8FF0020A,C9243B74
8FF0020B,C9242E7A
8FF0020C,C9243104
8FF0020D,C9248E84
8FF0020E,C9242E2D
8FF0020F,C9246FFE
8FF0021A,C9243009
8FF0021B,C9243AF8
8FF0021C,C924855B
8FF0021D,C9242FFE
8FF0021E,C924836B
8FF0021F,C92469A4
8FF0022A,C92458E0
8FF0022B,C924518E
8FF0022C,C9245637
8FF0022D,C924590A
8FF0022E,C924517C
8FF0022F,C92458DA
8FF0023A,C924562E
8FF0023B,C9245603
8FF0023C,C9245629
8FF0023D,C9245B11
8FF0023E,C9249077
8FF0024A,C92456D1
8FF0024B,C9245B13
8FF0024C,C92455CD
8FF0024D,C9242FF8
8FF0024E,C92459B8
8FF0024F,C92459B4
8FF00318,C924675A
8FF00319,C9247864
8FF00320,C9243256
8FF00322,C9247884
8FF00323,C924677A
8FF00324,C9247890
8FF00325,C924678A
8FF00326,C92478DC
8FF00327,C9247889
8FF00328,C9246780
8FF00329,C9246790
8FF00330,C9246786
8FF00331,C9249EB4
8FF00332,C92478D0
8FF00333,C9249E8C
8FF00334,C9249EC1
8FF00335,C92478A2
8FF00336,C9248B54
8FF00337,C924788B
8FF00338,C9249ECA
8FF00339,C9249E9E
8FF00340,C9249EAF
8FF00341,C9245082
8FF00342,C9245093
8FF00343,C9245077
8FF00344,C9245059
8FF00345,C924519D
8FF00346,C924507B
8FF00347,C9243264
8FF00348,C9249E46
8FF00349,C9249E4C
8FF00350,C92491DC
8FF00351,C924673B
8FF00352,C92435F3
8FF00353,C92466DA
8FF00354,C9246765
8FF00355,C924669E
8FF00356,C9248508
8FF00357,C9249FE8
8FF00358,C9245091
8FF00359,C924505D
8FF00360,C924507D
8FF00361,C924568A
8FF00362,C9246763
8FF00363,C924565F
8FF00364,C9245659
8FF00365,C9243178
8FF00366,C9245020
8FF00367,C9243183
8FF00368,C9245052
8FF00369,C9245010
8FF00370,C9246706
8FF00371,C9245045
8FF00372,C924989B
8FF00373,C92498DF
8FF00374,C92451AA
8FF00375,C92451B0
8FF00376,C9247841
8FF00377,C924784A
8FF00378,C9247855
8FF00379,C9248965
8FF00380,C9248551
8FF00381,C9247833
8FF00382,C9246736
8FF00383,C924565C
8FF00384,C92451A5
8FF00385,C924519F
8FF00386,C92451A7
8FF00387,C9246739
8FF00388,C9246753
8FF00389,C9246757
8FF00390,C9248579
8FF00391,C924990B
8FF00392,C92466BF
8FF00393,C92466BD
8FF00394,C92466B5
8FF00395,C9248584
8FF00397,C92466AD
8FF00398,C92466A1
8FF003BF,C92478CE
8FF003C0,C9247B7C
8FF003C1,C92450FE
8FF003CD,C924A562
8FF003CE,C9245105
8FF003CF,C92452D6
8FF003D0,C9242FA5
8FF003D1,C9247D44
8FF003D2,C9242E12
8FF003D3,C9242FAB
8FF003D4,C9247E68
8FF003D5,C9242E0B
8FF003D6,C9242E13
8FF003D7,C9246C67
8FF003D8,C9246C5F
8FF003D9,C9242E05
8FF003DA,C9247133
8FF003DB,C924A07C
8FF003DC,C92491AF
8FF003DD,C92431DB
8FF003DE,C92450AB
8FF003DF,C92450B1
8FF003E0,C92432E0
8FF003E1,C9245740
8FF003E2,C924A081
8FF003E3,C9248292
8FF003E4,C92491E8
8FF003E5,C9249FB7
8FF003E6,C9249F79
8FF003E7,C9249FBE
8FF003E8,C9249FE1
8FF003E9,C9245097
8FF003EA,C9245092
8FF003EB,C9245076
8FF003EC,C924509F
8FF003ED,C92450F1
8FF003EE,C9245745
8FF003EF,C9245737
8FF003F0,C9247BB4
8FF003F1,C924575A
8FF003F2,C9247B8A
8FF003F3,C9242E09
8FF003F4,C9248B46
8FF003F5,C9249DF4
8FF003F6,C9249E2A
8FF003F7,C9246C63
8FF003F8,C9246792
8FF003F9,C9249F21
8FF003FA,C9249F46
8FF003FB,C9246C6C
8FF003FC,C9246C78
8FF003FD,C9249EDA
8FF003FE,C9249F18
8FF003FF,C9249F28
8FF00400,C924777D
8FF00401,C92498F0
8FF00402,C9249EE5
8FF00403,C9247BA1
8FF00404,C9244823
8FF00405,C9249825
8FF00406,C92482A2
8FF00407,C924502E
8FF00408,C92442AC
8FF00409,C92466ED
8FF0040A,C92490A6
8FF0040B,C92490B2
8FF0040C,C924518C
8FF0040D,C92451A4
8FF0040E,C92466F8
8FF0040F,C9246724
8FF00410,C924417D
8FF00411,C9246E95
8FF00412,C92496F8
8FF00413,C92496F4
8FF00414,C9249713
8FF00415,C9244297
8FF00416,C92440C1
8FF00417,C924970B
8FF0041A,C9245312
8FF0041B,C924671E
8FF0041C,C9249EF1
8FF0041D,C9249F10
8FF0041E,C9249E55
8FF0041F,C9249EF7
8FF0042A,C9247C20
8FF0042B,C924841F
8FF0042C,C9246E90
8FF0042D,C9246E80
8FF0042E,C9246E6B
8FF0042F,C9246E69
8FF0043A,C9248539
8FF0043B,C9242E82
8FF0043C,C9248509
8FF0043D,C9248521
8FF0043E,C9245B19
8FF0043F,C92447F5
8FF0044A,C92440D7
8FF0044B,C924414B
8FF0044C,C92440B2
8FF0044D,C9249824
8FF0044E,C924982A
8FF0044F,C92447FF
8FF0045A,C9249837
8FF0045B,C924984A
8FF0045C,C9242F6E
8FF0045D,C92447F3
8FF0045E,C9244192
8FF0045F,C9246C71
8FF0046A,C9244279
8FF0046B,C9249F24
8FF0046C,C92478C7
8FF0046D,C92431CA
8FF0046E,C9248590
8FF0046F,C92491AE
8FF0047A,C9245051
8FF0047B,C92442B2
8FF0047C,C9246E4A
8FF0047D,C924424F
8FF0047E,C924411D
8FF0047F,C92442B0
8FF0048A,C9246E5C
8FF0048B,C9246ECA
8FF0048C,C9246E34
8FF0048D,C9246EC6
8FF0048E,C9246E7C
8FF0048F,C924504C
8FF0049A,C924985D
8FF0049B,C9246FC0
8FF0049C,C9249864
8FF0049D,C9246F9D
8FF0049E,C9246FE8
8FF0049F,C9246E7A
8FF004D7,C9245130
8FF004D8,C9244854
8FF004DB,C92451BE
8FF004DC,C9243E55
8FF004DD,C9244815
8FF004DE,C9247BBB
8FF004DF,C924578D
8FF004E0,C924579F
8FF004E1,C924577B
8FF004E2,C9248319
8FF004E3,C92496E9
8FF004E4,C92447E5
8FF004E5,C9246E88
8FF004E6,C9246E4D
8FF004E7,C924470A
8FF004E8,C9244797
8FF004E9,C9244701
8FF004EA,C92448A6
8FF004EB,C924477E
8FF004EC,C92446E8
8FF004ED,C924427B
8FF004EF,C9247D1E
8FF004F0,C9247D01
8FF004F1,C92435F6
8FF004F2,C9249E09
8FF004F3,C9247D05
8FF004F4,C9249E20
8FF004F5,C9244840
8FF004F6,C9249DFE
8FF004F7,C9248724
8FF004F8,C9247CFF
8FF004F9,C9243942
8FF004FA,C9249CE1
8FF004FB,C9249D26
8FF004FC,C9249CFB
8FF004FD,C9244358
8FF004FE,C92497BE
8FF004FF,C924977E
8FF00500,C92497B3
8FF00501,C92436CE
8FF00502,C92491D7
8FF00503,C9243196
8FF00504,C924515A
8FF0050A,C9249783
8FF0050B,C9243C66
8FF0050C,C9243C5E
8FF0050D,C9243CA0
8FF0050E,C9243C8F
8FF0050F,C9246CE7
8FF0051A,C92491D3
8FF0051B,C92452CB
8FF0051C,C9243C67
8FF0051D,C9243E7F
8FF0051E,C92452D0
8FF0051F,C9243E24
8FF0052A,C9246D0B
8FF0052C,C9245BAA
8FF0052D,C9249D1E
8FF0052E,C9244351
8FF0052F,C9244352
8FF0053A,C924317D
8FF0053B,C92482A5
8FF0053C,C924512F
8FF0053D,C9248B4C
8FF0053E,C9249E0C
8FF0053F,C92451A0
8FF0054A,C9249D0E
8FF0054B,C9243962
8FF0054D,C9243B95
8FF0054E,C9242F92
8FF0055C,C9249C3B
8FF0055D,C9249C14
8FF0055E,C9249C20
8FF00560,C9249B83
8FF00562,C9249BB4
8FF00563,C9249C59
8FF00564,C9249C64
8FF00565,C9248A41
8FF00566,C9248A2A
8FF00567,C9249064
8FF00568,C9248AE1
8FF00569,C9248A4F
8FF0056A,C9249C41
8FF0056B,C9249C08
8FF0056C,C924A0AB
8FF0056D,C9249BA5
8FF0056E,C9249BD0
8FF0056F,C9249B46
8FF00570,C9248A30
8FF00571,C9248AD4
8FF00572,C9248DE5
8FF00573,C9248ACF
8FF00574,C9248E0F
8FF00575,C9249054
8FF00576,C9248A2B
8FF00577,C9248A24
8FF00578,C9249052
8FF00579,C924908B
8FF0057A,C9249B5C
8FF0057B,C9249B59
8FF0057C,C9249B74
8FF0057D,C9249BBE
8FF0057E,C92430AA
8FF0057F,C9249B27
8FF00580,C9249084
8FF00581,C9248E19
8FF00582,C924901C
8FF00583,C924901E
8FF0058A,C9243089
8FF0058B,C9249B16
8FF0058C,C9249B21
8FF0058D,C9242E6D
8FF0058E,C92430B2
8FF0058F,C92430AB
8FF00598,C9249148
8FF00599,C9248A56
8FF0059A,C9249C31
8FF0059B,C9249B9E
8FF0059C,C9249C58
8FF0059D,C9249C60
8FF0059E,C9249B08
8FF0059F,C9249B1D
8FF005A0,C9248AC2
8FF005A1,C9243AFF
8FF005A3,C9249FA4
8FF005A4,C92483F6
8FF005A5,C9243B50
8FF005A6,C92482E7
8FF005A7,C9245ABA
8FF005A8,C9245AD4
8FF005A9,C924916D
8FF005AA,C9243BFC
8FF005AB,C9248DD5
8FF005AC,C924918C
8FF005AD,C9249163
8FF005AE,C9249186
8FF005AF,C9249BCE
8FF005B0,C9248E67
8FF005B1,C92430F7
8FF005B2,C92430B5
8FF005B3,C924919E
8FF005B4,C924918B
8FF005B5,C9249B6D
8FF005B6,C9249BAB
8FF005B7,C9249B7A
8FF005B8,C9249BC9
8FF005B9,C9249BB2
8FF005BA,C9249B3C
8FF005BB,C9249B9D
8FF005BC,C9249B30
8FF005BD,C9248A7E
8FF005BE,C9248A64
8FF005BF,C9248A96
8FF005C0,C9248A94
8FF005C1,C924910E
8FF005C2,C9246ED4
8FF005C3,C9246E30
8FF005C4,C92490EA
8FF005C5,C92490CC
8FF005C6,C9248A55
8FF005C7,C9249008
8FF005C8,C9248FF5
8FF005C9,C9248E1A
8FF005CA,C9249101
8FF005CB,C9248A9F
8FF005CC,C9249070
8FF005CD,C9244DAE
8FF005CE,C92490F7
8FF005CF,C92468BE
8FF005D0,C92490FE
8FF005D1,C92484FA
8FF005D2,C9245A93
8FF005D3,C9248500
8FF005D4,C9243B2D
8FF005D5,C92490E5
8FF005D6,C924A0A7
8FF005D7,C9249B67
8FF005D8,C9249C05
8FF005D9,C9249C5F
8FF005EC,C924916C
8FF005ED,C9245A96
8FF005EE,C9245A80
8FF005EF,C92455C3
8FF005F0,C9245B38
8FF005F1,C92456D2
8FF005F2,C9245693
8FF005F3,C9248A7B
8FF005F4,C9248A76
8FF005F5,C9248A4C
8FF005F6,C9248A53
8FF005F7,C924593B
8FF005F8,C9248A75
8FF005F9,C9248A69
8FF005FA,C92455CA
8FF005FB,C9245929
8FF005FC,C92455D5
8FF005FD,C92455C9
8FF005FE,C92455EE
8FF005FF,C92456A6
8FF00600,C9249121
8FF00601,C9249189
8FF00602,C9245A13
8FF00603,C9242E61
8FF00604,C9248CE0
8FF00605,C9248101
8FF00606,C9245901
8FF00608,C9242FCB
8FF0060A,C92490C2
8FF0060B,C9249140
8FF0060C,C92490AA
8FF0060D,C92490B5
8FF0060E,C9249199
8FF0060F,C924916E
8FF0061A,C924913E
8FF0061B,C9246E52
8FF0061C,C92491A0
8FF0061D,C924911F
8FF0061E,C9245A1A
8FF0061F,C9245A66
8FF0062A,C9245A02
8FF0062B,C9243B55
8FF0062C,C9243B7F
8FF0062D,C9243B29
8FF0062E,C9243B2F
8FF0062F,C9243B68
8FF0063A,C9248E3B
8FF0063B,C9243044
8FF0063C,C9243050
8FF0063D,C9242E65
8FF0063E,C9242E5B
8FF0063F,C9249B33
8FF0064A,C9246FF8
8FF0064B,C9247004
8FF0064C,C9243043
8FF0064D,C9242FF5
8FF0064E,C924382E
8FF0064F,C9243B7B
8FF0065A,C92458FE
8FF0065B,C9245620
8FF0065C,C924599E
8FF0065D,C9245910
8FF0065E,C9243B5E
8FF0065F,C9245992
8FF0066A,C9245611
8FF0066B,C924912B
8FF0066C,C9245618
8FF0066D,C92458D4
8FF0066E,C924562D
8FF0066F,C9245614
8FF0067B,C9245188
8FF0067C,C92455F8
8FF0067D,C9245B4B
8FF0067E,C92455C1
8FF0067F,C92459C7
8FF0068A,C9243B25
8FF008AC,C92452C9
8FF008AD,C92480E4
8FF008AE,C924529F
8FF008AF,C9245277
8FF008B0,C92452D4
8FF008B1,C92451E4
8FF008B2,C9245233
8FF008B3,C92432DC
8FF008B4,C924522D
8FF008B5,C92453A1
8FF008B6,C9243716
8FF008B7,C9245243
8FF008B8,C924537D
8FF008B9,C92453B9
8FF008BA,C9243719
8FF008BB,C92451DC
8FF008BC,C924371F
8FF008BD,C92451E8
8FF008BE,C92491A9
8FF008BF,C9247DB8
8FF008C0,C92491DE
8FF008C1,C92491E4
8FF008C2,C9247DFD
8FF008C3,C9249254
8FF008C4,C924714B
8FF008C5,C92436CB
8FF008C6,C924713A
8FF008C7,C9247E04
8FF008C8,C9247E30
8FF008C9,C9247DEB
8FF008CA,C9247DFC
8FF008CB,C92497DF
8FF008CC,C9249269
8FF008CD,C9249871
8FF008CE,C92451D8
8FF008CF,C9245394
8FF008D0,C92497D5
8FF008D1,C9245323
8FF008D2,C92452B8
8FF008D3,C924521E
8FF008D4,C9245218
8FF008D5,C92451FB
8FF008D6,C92451DD
8FF008D7,C9245404
8FF008D8,C92452DB
8FF008D9,C924378F
8FF008DA,C9249810
8FF008DB,C92452B9
8FF008DC,C924531B
8FF008DD,C9243313
8FF008DE,C92452F5
8FF008DF,C9243847
8FF008E0,C92431AF
8FF008E2,C9249180
8FF008E3,C92451F9
8FF008E4,C9243054
8FF008E5,C9243C32
8FF008E6,C92431E2
8FF009D5,C92480EB
8FF009D6,C9245246
8FF009D7,C92451CD
8FF009D8,C9243303
8FF009D9,C92452DF
8FF009DA,C92453AE
8FF009DB,C92452FD
8FF009DC,C9245328
8FF009DD,C92451F3
8FF009DE,C92452FE
8FF009DF,C9243728
8FF009E0,C9248935
8FF009E1,C9243731
8FF009E2,C9243734
8FF009E3,C92452BC
8FF009E4,C9243726
8FF009E5,C9243C3A
8FF009E6,C9247DBA
8FF009E7,C9247DBF
8FF009E8,C9243190
8FF009E9,C924924C
8FF009EA,C9243C48
8FF009EB,C9243297
8FF009EC,C92497EA
8FF009ED,C92497DE
8FF009EE,C9243C4E
8FF009EF,C924712C
8FF009F0,C9247E0A
8FF009F1,C9249273
8FF009F2,C9249267
8FF009F3,C92497D8
8FF009F4,C924925C
8FF009F5,C92451DE
8FF009F6,C9243745
8FF009F7,C9245311
8FF009F8,C9243753
8FF009F9,C9245343
8FF009FA,C92452AF
8FF009FB,C92452E2
8FF009FC,C92452DE
8FF009FD,C924520B
8FF009FE,C92451C7
8FF009FF,C924543F
8FF00A00,C924333D
8FF00A01,C9249C1A
8FF00A02,C9249B45
8FF00A03,C92430EF
8FF00A04,C9249C03
8FF00A05,C9249BDA
8FF00A06,C9249C18
8FF00A07,C9249BCC
8FF00A08,C9248A27
8FF00A09,C9249092
8FF00A0A,C92451C0
8FF00A0B,C9249C4D
8FF00A0C,C9249C09
8FF00A0D,C9249C28
8FF00A0E,C9249C4B
8FF00A0F,C9249C26
8FF00A1A,C9249C4A
8FF00A1B,C9249B9F
8FF00A1C,C9249C36
8FF00A1D,C9249B42
8FF00A1E,C9249B56
8FF00A1F,C9249B6E
8FF00A23,C924910D
8FF00A26,C92478A9
8FF00A27,C9248A62
8FF00A28,C9248A60
8FF00A29,C9248ABC
8FF00A2A,C9249B6A
8FF00A2B,C9249B63
8FF00A2C,C9249B3D
8FF00A2D,C92430C8
8FF00A2E,C9249BE8
8FF00A2F,C9249B01
8FF00A30,C9249FB0
8FF00A31,C9248524
8FF00A32,C92482D5
8FF00A33,C92482DB
8FF00A34,C9243828
8FF00A35,C92483F0
8FF00A36,C9245182
8FF00A37,C924853C
8FF00A38,C92435FC
8FF00A39,C9247D88
8FF00A3A,C9242E58
8FF00A3B,C92430A8
8FF00A3C,C9242E6A
8FF00A3D,C92430AD
8FF00A3E,C9248E34
8FF00A3F,C9242E5F
8FF00A40,C9243B3B
8FF00A41,C92458DF
8FF00A42,C9245AAD
8FF00A43,C9245B37
8FF00A44,C9245AAF
8FF00A45,C9245A9C
8FF00A46,C9246F08
8FF00A47,C9249164
8FF00A48,C924919F
8FF00A49,C92430D8
8FF00A4A,C9242E68
8FF00A4B,C924308F
8FF00A4C,C9248E39
8FF00A4D,C9249BF8
8FF00A4E,C9249B6B
8FF00A4F,C9249C7D
8FF00A50,C9249BF0
8FF00A51,C9249185
8FF00A52,C9249170
8FF00A53,C9242E7C
8FF00A54,C92430EC
8FF00A55,C9249C80
8FF00A56,C92430E4
8FF00A57,C92430D4
8FF00A58,C9249C93
8FF00A59,C9249B81
8FF00A5A,C9242E5A
8FF00A5B,C9243114
8FF00A5C,C9248E2B
8FF00A5D,C9249C65
8FF00A5E,C9249C53
8FF00A5F,C9249B90
8FF00A60,C9248E38
8FF00A61,C9242E56
8FF00A62,C9248E2D
8FF00A63,C9249BC8
8FF00A64,C9249BC2
8FF00A65,C9249BA9
8FF00A66,C9249B76
8FF00A67,C9249BB1
8FF00A68,C9249B8E
8FF00A69,C9249B89
8FF00A6A,C92430F9
8FF00A6B,C9249B26
8FF00A6C,C9249B24
8FF00A6D,C9249B14
8FF00A6E,C9249B28
8FF00A6F,C9249B0E
8FF00A70,C9249BAC
8FF00A71,C9249C11
8FF00A72,C9249BE1
8FF00A73,C92430D9
8FF00A74,C92430B8
8FF00A75,C9249B92
8FF00A76,C9249B48
8FF00A77,C9249B36
8FF00A78,C9249B4D
8FF00A79,C9248A5E
8FF00A7A,C9249B50
8FF00A7B,C9248E31
8FF00A7C,C9248A39
8FF00A7D,C9248A32
8FF00A7E,C9248ABD
8FF00A7F,C9249152
8FF00A80,C9248A6D
8FF00A81,C9248A72
8FF00A82,C92490DC
8FF00A83,C9248A8E
8FF00A84,C9249E2D
8FF00A85,C9248A74
8FF00A86,C9249103
8FF00A87,C924910F
8FF00A88,C92490EB
8FF00A89,C92490DE
8FF00A8A,C9248DF1
8FF00A8B,C9248AC9
8FF00A8C,C9249062
8FF00A8D,C9249066
8FF00A8E,C924914B
8FF00A8F,C9248A85
8FF00A90,C92490D1
8FF00A91,C9248AB5
8FF00A92,C9249042
8FF00A93,C924902D
8FF00A94,C924599D
8FF00A95,C9249002
8FF00A96,C9248FFA
8FF00A97,C9249007
8FF00A98,C9248A2F
8FF00A99,C9248A4E
8FF00A9A,C9248DF7
8FF00A9B,C9249016
8FF00A9C,C92490B1
8FF00A9D,C9248A3E
8FF00AA0,C9249188
8FF00AA1,C92490D2
8FF00AA2,C92490EC
8FF00AA3,C92490F0
8FF00AA4,C924A196
8FF00AA5,C9245B45
8FF00AA6,C924917E
8FF00AA7,C9245AB7
8FF00AA8,C9243B22
8FF00AA9,C9243AF7
8FF00AAA,C9243B1D
8FF00AAB,C9249E59
8FF00AAC,C9249C78
8FF00AAD,C9249C72
8FF00AAE,C9249C5A
8FF00AAF,C9249C54
8FF00AB0,C9249C37
8FF00AC6,C9245B30
8FF00AC7,C9248530
8FF00AC8,C92456AA
8FF00AC9,C92456B5
8FF00ACA,C9245695
8FF00ACB,C92456C3
8FF00ACC,C9248A57
8FF00ACD,C9249065
8FF00ACE,C9248A6B
8FF00ACF,C924594C
8FF00AD0,C9248A89
8FF00AD1,C9245919
8FF00AD2,C92456A0
8FF00AD3,C92456B9
8FF00AD4,C92456AB
8FF00AD5,C924569E
8FF00AD6,C92455E0
8FF00AD7,C924911B
8FF00AD8,C9249127
8FF00AD9,C924515C
8FF00ADA,C924911C
8FF00ADB,C92490B0
8FF00ADC,C92490BA
8FF00ADD,C9249165
8FF00ADE,C924915E
8FF00ADF,C9249177
8FF00AE0,C9248B5A
8FF00AE1,C924916B
8FF00AE2,C9245A7A
8FF00AE3,C924568E
8FF00AE4,C9245A1B
8FF00AE5,C9245A08
8FF00AE6,C9245A25
8FF00AE7,C9243B34
8FF00AE8,C92482C5
8FF00AE9,C9243B79
8FF00AEA,C924568C
8FF00AEB,C9243B5A
8FF00AEC,C9243B33
8FF00AED,C9248E48
8FF00AEE,C9248E2A
8FF00AEF,C924304A
8FF00AF0,C9242E6C
8FF00AF1,C9242E71
8FF00AF2,C9243B76
8FF00AF3,C924834B
8FF00AF4,C9243003
8FF00AF5,C9244B7D
8FF00AF6,C9248567
8FF00AF7,C9248555
8FF00AF8,C9243010
8FF00AF9,C9246A53
8FF00AFA,C9249E2B
8FF00AFB,C9247E98
8FF00AFC,C9245619
8FF00AFD,C9248ADF
8FF00AFE,C9245638
8FF00AFF,C924383A
8FF00B00,C92455FC
8FF00B01,C924907A
8FF00B02,C92455DE
8FF00B0A,C9245905
8FF00B0B,C9245601
8FF00B0C,C92455FF
8FF00B0D,C9245612
8FF00B0E,C9245621
8FF00B0F,C9243C0D
8FF00B1A,C9245AFA
8FF00B1B,C924560E
8FF00B1C,C9245626
8FF00B1D,C924862E
8FF00B1F,C9245B0F
8FF00B2A,C924568F
8FF00B2B,C92459B9
8FF00B2C,C92459BE
8FF00B2D,C9243035
8FF00B2E,C9242FFC
8FF00B2F,C92459CA
8FF00D52,C924309C
8FF00D53,C9248E2E
8FF00D54,C9242E59
8FF00D55,C9242E50
8FF00D56,C92430C0
8FF00D57,C9249C04
8FF00D58,C9249C75
8FF00D59,C9242E60
8FF00D5C,C9249C00
8FF00D5D,C924A0A9
8FF00D5E,C9249C33
8FF00D5F,C9249BDC
8FF00D60,C924311B
8FF00D61,C9248E30
8FF00D62,C9248E32
8FF00D63,C9248E50
8FF00D64,C92430A5
8FF00D65,C9248E56
8FF00D66,C92430B9
8FF00D67,C9249C12
8FF00D68,C9249BD9
8FF00D69,C9249BDF
8FF00D6A,C9249C34
8FF00D6B,C9249C01
8FF00D6C,C9249C1C
8FF00D6D,C9249C1D
8FF00D6E,C9249C0A
8FF00D6F,C9249AF8
8FF00D70,C9249B20
8FF00D71,C9249BFB
8FF00D72,C9249B22
8FF00D73,C9243073
8FF00D74,C9249C25
8FF00D75,C9249BC1
8FF00D76,C9249BEC
8FF00D77,C9249BE6
8FF00D78,C9249B47
8FF00D79,C9249C51
8FF00D7A,C9249C3E
8FF00D7B,C9249C2D
8FF00D7C,C9249BCA
8FF00D7D,C9249B0A
8FF00D7E,C9249AE7
8FF00D7F,C9249B99
8FF00D80,C92430CA
8FF00D81,C9249BF2
8FF00D82,C9249156
8FF00D83,C9249040
8FF00D84,C9249046
8FF00D85,C9249058
8FF00D86,C924904C
8FF00D87,C9248A14
8FF00D88,C9248A48
8FF00D89,C9248A47
8FF00D8A,C9249B93
8FF00D8B,C9249B52
8FF00D8C,C9249B34
8FF00D8D,C9249B4B
8FF00D8E,C9249B43
8FF00D8F,C9249B4F
8FF00D90,C9248A18
8FF00D91,C9248DBE
8FF00D92,C9248A29
8FF00D93,C9248DB8
8FF00D94,C9248DEF
8FF00D95,C9248A23
8FF00D97,C9249158
8FF00D98,C9248A0D
8FF00D99,C924912F
8FF00D9A,C9249B1C
8FF00D9B,C9249B17
8FF00D9C,C924305B
8FF00D9D,C92430B6
8FF00D9E,C9249C1B
8FF00D9F,C9242E57
8FF00DA0,C9248AC3
8FF00DA1,C92490ED
8FF00DA2,C9249076
8FF00DA3,C924907C
8FF00DA4,C9248A3C
8FF00DA5,C9248DEE
8FF00DA6,C9248DEB
8FF00DA7,C9248A5F
8FF00DA8,C9248ABF
8FF00DA9,C9248FF3
8FF00DC3,C9244BBB
8FF00DC4,C9248A11
8FF00DC5,C9248A68
8FF00DC7,C9247D96
8FF00DC8,C9247EA4
8FF00DC9,C9249FAA
8FF00DCA,C92482E1
8FF00DCB,C92482FA
8FF00DCC,C92482CA
8FF00DCD,C92482EE
8FF00DCE,C9248402
8FF00DCF,C9248501
8FF00DD0,C9243B66
8FF00DD1,C9243B35
8FF00DD2,C9243B3E
8FF00DD3,C9245ADB
8FF00DD4,C9245B44
8FF00DD5,C9245A97
8FF00DD6,C92482DD
8FF00DD7,C9245A90
8FF00DD8,C9245A89
8FF00DD9,C9245AB2
8FF00DDA,C924972D
8FF00DDB,C9242E6E
8FF00DDC,C9249BFC
8FF00DDD,C9249174
8FF00DDE,C9243109
8FF00DDF,C9248E36
8FF00DE0,C9242E55
8FF00DE1,C92430EA
8FF00DE2,C92430DA
8FF00DE3,C9249198
8FF00DE4,C9249C8E
8FF00DE5,C9249BF7
8FF00DE6,C9248E29
8FF00DE7,C9249BB3
8FF00DE8,C9248E33
8FF00DE9,C9249B7B
8FF00DEA,C9248E5A
8FF00DEB,C9249BC0
8FF00DEC,C924A0AD
8FF00DED,C9248E0D
8FF00DEE,C9249BAF
8FF00DEF,C924917F
8FF00DF0,C9249BDB
8FF00DF1,C9249B9A
8FF00DF2,C9249BF9
8FF00DF3,C9249B86
8FF00DF4,C9249BA0
8FF00DF5,C9249BA6
8FF00DF6,C9249BB7
8FF00DF7,C9249B9B
8FF00DF8,C9249B95
8FF00DF9,C9249C2E
8FF00DFA,C9249B53
8FF00DFB,C9249B5D
8FF00DFC,C9249C42
8FF00DFD,C9249B98
8FF00DFE,C9249BFA
8FF00DFF,C9249B31
8FF00E00,C9249B5A
8FF00E01,C9248A8F
8FF00E02,C92490D8
8FF00E03,C924903D
8FF00E04,C92490F9
8FF00E05,C9243B10
8FF00E09,C9245AA8
8FF00E0A,C9249B11
8FF00E0B,C9248A78
8FF00E0C,C9248A97
8FF00E0D,C9248A73
8FF00E0E,C9248A52
8FF00E0F,C92490D6
8FF00E10,C92456A1
8FF00E11,C92456A7
8FF00E12,C92456AE
8FF00E13,C9243B15
8FF00E14,C9245AB3
8FF00E15,C9248A80
8FF00E16,C9249113
8FF00E17,C9249069
8FF00E18,C9249051
8FF00E19,C9245941
8FF00E1A,C9248A65
8FF00E1B,C9246BD5
8FF00E1C,C92490DF
8FF00E1D,C92490CF
8FF00E1E,C924A18A
8FF00E1F,C92490D7
8FF00E20,C92455E6
8FF00E21,C9245A14
8FF00E22,C92455C4
8FF00E23,C9245A06
8FF00E24,C92456A4
8FF00E25,C92456B2
8FF00E26,C92456C1
8FF00E27,C924908D
8FF00E28,C92490C7
8FF00E29,C9249122
8FF00E2A,C9248A91
8FF00E2B,C9248A67
8FF00E2C,C9248AB0
8FF00E2D,C9249027
8FF00E2E,C92490CA
8FF00E2F,C9249020
8FF00E30,C9249115
8FF00E31,C9249114
8FF00E32,C924913D
8FF00E33,C9248DCF
8FF00E34,C924915F
8FF00E35,C9249197
8FF00E36,C9249167
8FF00E37,C924919A
8FF00E38,C92430AE
8FF00E39,C9245A1E
8FF00E3A,C92490C1
8FF00E3B,C92490E6
8FF00E3C,C924917B
8FF00E3D,C924906A
8FF00E3E,C9246707
8FF00E3F,C92467EC
8FF00E40,C9245A12
8FF00E41,C9245699
8FF00E42,C9245A24
8FF00E43,C92459F1
8FF00E44,C9245A6E
8FF00E45,C9243B5B
8FF00E46,C9243B1C
8FF00E47,C9243B0F
8FF00E48,C924852A
8FF00E49,C92482CF
8FF00E4A,C9249181
8FF00E4B,C9245B34
8FF00E4C,C924912A
8FF00E4D,C92482F2
8FF00E4E,C9249172
8FF00E4F,C9243B28
8FF00E50,C9243B1B
8FF00E51,C9248E27
8FF00E52,C9248E2F
8FF00E53,C9248E7E
8FF00E54,C9242E72
8FF00E55,C9249C46
8FF00E56,C92430D2
8FF00E57,C9243037
8FF00E58,C924300F
8FF00E59,C9242FF0
8FF00E5A,C9243B32
8FF00E5B,C9249C6C
8FF00E5C,C9249C8F
8FF00E5E,C9249C3D
8FF00E5F,C9249BF1
8FF00E60,C9245607
8FF00E61,C9242FFD
8FF00E62,C924300A
8FF00E63,C924302F
8FF00E64,C924835F
8FF00E65,C9248347
8FF00E66,C924561B
8FF00E67,C9245608
8FF00E68,C92458E3
8FF00E69,C92498FC
8FF00E70,C9248ACD
8FF00E71,C9245622
8FF00E72,C9245A95
8FF00E73,C9245904
8FF00E74,C92458D5
8FF00E75,C9243B75
8FF00E76,C924560A
8FF00E77,C92455FB
8FF00E78,C924563D
8FF00E79,C9245912
8FF00E83,C9245B50
8FF00E84,C9245B12
8FF00E85,C92455F0
8FF00E86,C92459D1
8FF00E87,C9242FE6
8FF00E88,C924835E
8FF00E89,C92459DE
8FF00E90,C92459D0
8FF00E9B,C9245B3F
8FF00E9C,C9245B42
8FF00E9D,C9245B3C
8FF00E9E,C92464B3
8FF00E9F,C92456BF
8FF01150,C9249B32
8FF01151,C9249B55
8FF01152,C9249B54
8FF01153,C9243067
8FF01154,C9249C30
8FF01155,C9243083
8FF01156,C9249B25
8FF01157,C9243085
8FF01158,C9249B2D
8FF01159,C92430A4
8FF0115A,C9249C2C
8FF0115B,C9249C2F
8FF0115C,C9249C19
8FF0115E,C9249C44
8FF0115F,C9249C21
8FF01160,C9249AF5
8FF01161,C924306D
8FF01162,C924307F
8FF01163,C9243097
8FF01164,C9243101
8FF01165,C9242E64
8FF01166,C92430F5
8FF01167,C9242E51
8FF01168,C92430B3
8FF01169,C9248E37
8FF0116A,C9249BEE
8FF0116B,C9249AF2
8FF0116C,C9249AEC
8FF0116D,C9249C10
8FF0116E,C9249C17
8FF0116F,C9249C45
8FF01170,C9242E5E
8FF01171,C9242E63
8FF01172,C9248E3A
8FF01173,C9248E40
8FF01174,C9249BFD
8FF01175,C92430FB
8FF01176,C9248E3D
8FF01177,C9242E73
8FF01178,C9242E54
8FF01179,C92430C6
8FF0117A,C9249AF3
8FF0117B,C9249BD6
8FF0117C,C9249C40
8FF0117D,C9249C16
8FF0117E,C9249B0D
8FF0117F,C9249AEE
8FF01180,C92430CF
8FF01181,C9249C6A
8FF01182,C9249B41
8FF01183,C9242E52
8FF01184,C9242E78
8FF01185,C9248E3C
8FF01186,C9242E5D
8FF01187,C9242E74
8FF01188,C9242E7D
8FF01189,C9248E3F
8FF0118A,C9249C38
8FF0118B,C9249B51
8FF0118C,C924A0AE
8FF0118D,C9249C35
8FF0118E,C9249BC4
8FF0118F,C9249B39
8FF01190,C9242E66
8FF01191,C9249C0C
8FF01192,C9249C8D
8FF01193,C9248E43
8FF01194,C9248E4A
8FF01195,C9249BAE
8FF01196,C9249BA8
8FF01197,C9249C8A
8FF01198,C9249BEB
8FF01199,C9249BE5
8FF0119A,C9249B58
8FF0119B,C9249B4C
8FF0119D,C9249B4E
8FF0119E,C9249B69
8FF0119F,C9249B38
8FF011A0,C9249BA4
8FF011A1,C9249B2C
8FF011A2,C9249C0F
8FF011A3,C9249B0B
8FF011A4,C92430C1
8FF011A5,C9242E4E
8FF011A6,C9249B1F
8FF011A7,C9249BE2
8FF011A8,C9249B18
8FF011A9,C924A0B0
8FF011AA,C9249C23
8FF011AB,C9249B23
8FF011AC,C9249B04
8FF011AD,C9249AFE
8FF011AE,C9249BC7
8FF011AF,C9249BD1
8FF011B0,C9249B8A
8FF011B1,C9249BD5
8FF011B2,C9249B7D
8FF011B3,C9249C5E
8FF011B4,C9249B4A
8FF011B5,C924913B
8FF011B6,C9248E15
8FF011B7,C9248DC7
8FF011B8,C9249BE0
8FF011B9,C9248A2C
8FF011BA,C9248A37
8FF011BB,C9248A33
8FF011BC,C9248A1A
8FF011BD,C924905E
8FF011BE,C9248A0E
8FF011BF,C9248ADB
8FF011C0,C9248A1F
8FF011C1,C9248A0C
8FF011C2,C9248A13
8FF011C3,C9248A43
8FF011C4,C9248A1E
8FF011C5,C9249146
8FF011C6,C9248E14
8FF011C7,C9248DE3
8FF011C8,C9248DF5
8FF011C9,C9249145
8FF011CA,C9248DD3
8FF011CB,C9248E16
8FF011CC,C9248A9C
8FF011CD,C9249141
8FF011CE,C9248DB4
8FF011CF,C9248AB7
8FF011D0,C9248A35
8FF011D1,C9248A42
8FF011D2,C9249059
8FF011D3,C92490B7
8FF011D4,C9248A31
8FF011D5,C92490F3
8FF011D6,C9248DE2
8FF011D7,C9248A8B
8FF011D8,C9248AB9
8FF011D9,C9248A84
8FF011DA,C924900A
8FF011DB,C9248FF9
8FF011DC,C9248A54
8FF011FC,C92435EA
8FF011FD,C9248AAA
8FF011FE,C9248FFD
8FF011FF,C9248A5B
8FF01200,C9248AC8
8FF01201,C9248531
8FF01202,C92482BE
8FF01203,C9245ACF
8FF01204,C9249192
8FF01205,C9249C87
8FF01206,C9242E75
8FF01207,C9249BD3
8FF01208,C9249BBD
8FF01209,C9249B88
8FF0120A,C92478AE
8FF0120B,C92430C9
8FF0120C,C92478BA
8FF0120D,C9249E33
8FF0120E,C9249E25
8FF0120F,C924A094
8FF01210,C9249B82
8FF01211,C92490D0
8FF01212,C9248A90
8FF01213,C9248A79
8FF01214,C9248E13
8FF01215,C9248A7F
8FF01216,C9248A7A
8FF01217,C9248A82
8FF01218,C92490F2
8FF01219,C92490F6
8FF0121A,C92482D6
8FF0121B,C92482C4
8FF0121C,C92482E8
8FF0121D,C92482FF
8FF0121E,C9247D9D
8FF0121F,C92482F4
8FF01220,C9249715
8FF01221,C9249102
8FF01222,C92490FD
8FF01223,C92490CB
8FF01224,C9248A9E
8FF01225,C9248A61
8FF01226,C924904E
8FF01227,C924904A
8FF01228,C9249038
8FF01229,C9249136
8FF0122A,C9249E39
8FF0122B,C92435F0
8FF0122C,C9243B44
8FF0122D,C9248301
8FF0122E,C9245AC7
8FF0122F,C9245B32
8FF01230,C92490DD
8FF01231,C924900F
8FF01232,C9248AD5
8FF01233,C9248FFC
8FF01234,C9248AB1
8FF01235,C9248A25
8FF01236,C9244DAB
8FF01237,C92490E7
8FF01238,C92467E8
8FF01239,C9249108
8FF0123A,C9245AC2
8FF0123B,C9245AAC
8FF0123C,C9245A83
8FF0123D,C9248DE1
8FF0123E,C9248E66
8FF0123F,C924916F
8FF01240,C9249187
8FF01241,C9249883
8FF01242,C924688C
8FF01243,C9245A87
8FF01244,C9245ABD
8FF01245,C9243BF6
8FF01246,C9243B17
8FF01247,C9245A8D
8FF01248,C9245ABE
8FF01249,C9243B0B
8FF0124A,C9242E69
8FF0124B,C924917A
8FF0124C,C9242E7F
8FF0124D,C9248E5B
8FF0124E,C9248E42
8FF0124F,C9248E61
8FF01250,C9249B85
8FF01251,C9243B38
8FF01252,C9249C7C
8FF01253,C9249C83
8FF01254,C9249C43
8FF0125A,C92430E0
8FF0125B,C92430FE
8FF0125C,C92430A6
8FF0125D,C92430BB
8FF0125E,C9248E3E
8FF0125F,C9249179
8FF0126A,C9248B3F
8FF0126B,C9248E60
8FF0126C,C9249BD4
8FF0126D,C924A0AF
8FF0126E,C9249C02
8FF0126F,C9249173
8FF0127A,C9249BC3
8FF0127B,C9249BFF
8FF0127C,C9249BED
8FF0127D,C9249BF3
8FF0127E,C9249BEA
8FF0127F,C9249B7F
8FF01280,C9245A86
8FF01281,C92456B0
8FF01282,C92456C8
8FF01283,C92456C7
8FF01284,C924569F
8FF01285,C9245690
8FF01286,C9245AC1
8FF01287,C9243B2C
8FF01288,C92456AC
8FF01289,C9245A81
8FF0128A,C9249BA1
8FF0128B,C9249B49
8FF0128C,C9249B57
8FF0128D,C9249BB8
8FF0128E,C9249BA3
8FF0128F,C9249C29
8FF01290,C9245ABB
8FF01291,C9248FF4
8FF01292,C9249037
8FF01293,C9248A88
8FF01294,C9248A63
8FF01295,C9248A70
8FF01296,C9248A92
8FF01297,C924906E
8FF01298,C92455D0
8FF01299,C92455D6
8FF0129A,C924919D
8FF0129B,C92430E6
8FF0129C,C9249BBB
8FF0129D,C9249B8D
8FF0129E,C9249B7C
8FF0129F,C9249B6C
8FF012A0,C92455CF
8FF012A1,C92456B1
8FF012A2,C92455F9
8FF012A3,C92456C2
8FF012A4,C9248940
8FF012A5,C9249087
8FF012A6,C924909D
8FF012A7,C924304B
8FF012A8,C9249138
8FF012A9,C924912D
8FF012AA,C9249139
8FF012AB,C9249161
8FF012AC,C924912C
8FF012AD,C92483DD
8FF012AE,C9249D7E
8FF012AF,C924918E
8FF012B0,C924917D
8FF012B1,C9245A74
8FF012B2,C9245A01
8FF012B3,C9245694
8FF012B4,C92459F5
8FF012B5,C9245A0D
8FF012B6,C9245A18
8FF012B7,C92456BD
8FF012B8,C9243B72
8FF012B9,C9243B21
8FF012BA,C9245A2A
8FF012BB,C9243B12
8FF012BC,C9243B2E
8FF012BD,C9242E4F
8FF012BE,C9248E35
8FF012BF,C9249AEB
8FF012C0,C924310F
8FF012C1,C9249C3F
8FF012C2,C92430E3
8FF012C3,C92470A2
8FF012C4,C9242E77
8FF012C5,C9248E72
8FF012C6,C924303D
8FF012C7,C9242FEA
8FF012C8,C9248369
8FF012C9,C9243B05
8FF012CA,C9248371
8FF012CB,C9243004
8FF012CC,C92486CB
8FF012CD,C924810D
8FF012CE,C9249972
8FF012CF,C9245998
8FF012D0,C924560C
8FF012D1,C9245634
8FF012D2,C92458D1
8FF012D3,C92458E1
8FF012D4,C9243C13
8FF012D5,C9245623
8FF012D6,C9243B46
8FF012D7,C9243BCC
8FF012D8,C924561D
8FF012D9,C924561E
8FF012DA,C92455DF
8FF012DE,C9245696
8FF012DF,C9245B4F
8FF012E0,C92455C7
8FF012E1,C92459BF
8FF012E2,C92455D9
8FF012E3,C92459D7
8FF012E4,C9245A62
8FF012E5,C9245A68
8FF015DC,C924670E
8FF015DD,C92466A4
8FF015DE,C9246754
8FF015DF,C924853B
8FF015E0,C924673A
8FF015E1,C924672C
8FF015E2,C9246732
8FF015E3,C9246758
8FF015E4,C924786C
8FF015E5,C924675C
8FF015E6,C924673D
8FF015E7,C92467AF
8FF015E8,C9246782
8FF015E9,C924679D
8FF015EA,C9246796
8FF015EB,C9249E98
8FF015EC,C9247867
8FF015ED,C9249E91
8FF015EE,C9249EA2
8FF015EF,C9247868
8FF015F0,C924788F
8FF015F1,C924833D
8FF015F2,C92478B9
8FF015F3,C9249EC4
8FF015F4,C9249EBB
8FF015F5,C92478A7
8FF015F6,C924510F
8FF015F7,C9245067
8FF015F8,C924509D
8FF015F9,C92451AE
8FF015FA,C9249E92
8FF015FB,C924325F
8FF015FC,C924835C
8FF015FD,C92431F3
8FF015FE,C9248380
8FF015FF,C9248362
8FF01600,C9249F6B
8FF01601,C9249FB8
8FF01602,C9245049
8FF01603,C9247B12
8FF01604,C92451AB
8FF01605,C92466AF
8FF01606,C9246CB0
8FF01607,C9243BA2
8FF0160A,C9246740
8FF0160B,C92466B6
8FF0160C,C924672F
8FF0160D,C9247D07
8FF0160E,C9243174
8FF0160F,C9249F94
8FF0161A,C924508A
8FF0161B,C9245070
8FF0161C,C9245069
8FF0161D,C9247A81
8FF0161E,C924673C
8FF0161F,C924501A
8FF0162A,C9245671
8FF0162B,C924675D
8FF0162C,C9245333
8FF0162D,C9247B3A
8FF0162E,C9247D52
8FF0162F,C9248945
8FF0163A,C92498BF
8FF0163B,C92498A7
8FF0163C,C92498B9
8FF0163D,C92498D2
8FF0163E,C9243981
8FF0163F,C92498F3
8FF01644,C92498D5
8FF01647,C9245254
8FF01648,C92491FA
8FF01649,C92440AD
8FF0164A,C92451B7
8FF0164B,C92451AD
8FF0164C,C9249248
8FF0164D,C924669D
8FF0164E,C92466D3
8FF0164F,C92466BA
8FF01650,C9246E76
8FF01652,C9248533
8FF01653,C924480C
8FF01654,C92447EC
8FF01655,C92440CD
8FF01656,C9244829
8FF01658,C9249843
8FF0165A,C9246734
8FF0165B,C92466D4
8FF0165C,C92466CB
8FF0165D,C9247D3A
8FF0165E,C9243615
8FF0165F,C9247D31
8FF01661,C9249303
8FF01665,C9245129
8FF01666,C9249394
8FF01667,C92443AE
8FF01668,C924979D
8FF01669,C9248728
8FF0166A,C92485C5
8FF0166B,C92466C3
8FF0166C,C92466B9
8FF0166D,C9248544
8FF0166E,C9247D58
8FF01670,C92491F0
8FF01671,C92451D6
8FF01672,C9243E64
8FF01673,C9243979
8FF01674,C9243E5F
8FF01675,C9246357
8FF01676,C92431A3
8FF01677,C9243173
8FF01678,C9249ECB
8FF0167A,C92467A3
8FF0167B,C92482DA
8FF0167D,C9248570
8FF01681,C9243955
8FF01682,C9243B96
8FF01683,C9249E9B
8FF01684,C92482B3
8FF01685,C924827D
8FF01686,C9247E5A
8FF01851,C9246AB3
8FF01854,C92473EB
8FF01855,C92473B6
8FF01856,C9243DB2
8FF01857,C92473A7
8FF01858,C9247474
8FF01859,C924742D
8FF01860,C9243756
8FF01861,C9247488
8FF01862,C92493ED
8FF01863,C92493FE
8FF01864,C9245EFD
8FF01865,C9246A6B
8FF01866,C9246A6F
8FF01867,C9246AAA
8FF01868,C9246E24
8FF01869,C9246AB1
8FF01870,C9248204
8FF01871,C924821C
8FF01872,C924A49D
8FF01873,C9248217
8FF01874,C9248221
8FF01924,C9245AB9
8FF01929,C92481FD
8FF01930,C924A3EE
8FF01931,C92481E6
8FF01932,C9247452
8FF01933,C924890F
8FF01934,C924875A
8FF01935,C9248235
8FF01936,C924862A
8FF01937,C924862C
8FF01938,C92485D2
8FF01939,C9246AE9
8FF01940,C924862D
8FF01941,C924946A
8FF01942,C9248241
8FF01943,C924A09D
8FF01944,C924877D
8FF0194C,C9249E6D
8FF0194D,C9244813
8FF01957,C92491CB
8FF01958,C92453AA
8FF01959,C92497B5
8FF01960,C9242E18
8FF01961,C9245147
8FF01962,C9246C5E
8FF01963,C9246C65
8FF01964,C9246C56
8FF01965,C9246C5C
8FF01966,C924329C
8FF01967,C92491A5
8FF01968,C92450E1
8FF01969,C924573A
8FF01970,C9247BB8
8FF01971,C92482AA
8FF01972,C92482CD
8FF01973,C92431C1
8FF01974,C92491E3
8FF01975,C9249F78
8FF01976,C9249F6C
8FF01977,C9249FC4
8FF01978,C9249F7E
8FF01979,C92450F6
8FF01980,C924506A
8FF01981,C9245122
8FF01982,C924511B
8FF01983,C9245729
8FF01984,C924573B
8FF01985,C9247BAF
8FF01986,C9245786
8FF01987,C9247BAA
8FF01988,C9242E14
8FF01989,C9249EB2
8FF01990,C9249ED4
8FF01991,C9249F43
8FF01992,C9249F52
8FF01993,C9246C47
8FF01994,C9246C77
8FF01995,C9249F35
8FF01996,C9249F2F
8FF01997,C9249083
8FF01998,C92490BE
8FF01999,C924908F
8FF019A0,C924893E
8FF019A1,C9245197
8FF019A2,C9246701
8FF019A3,C924992A
8FF019A4,C92466EF
8FF019A5,C9246712
8FF019A6,C92466F0
8FF019A7,C92466EA
8FF019A8,C9247BBF
8FF019A9,C9248395
8FF019AA,C9249EFE
8FF019AB,C9246C4D
8FF019AC,C92496DD
8FF019AD,C92496D7
8FF019AE,C9246E35
8FF019AF,C9246E77
8FF019B0,C9243042
8FF019B1,C9243036
8FF019B2,C9245A17
8FF019B3,C9245B2E
8FF019B4,C9244820
8FF019B5,C92440C8
8FF019B6,C92447AC
8FF019B7,C92447F9
8FF019B8,C92440B9
8FF019B9,C92496EE
8FF019BA,C9245048
8FF019BB,C924503F
8FF019BC,C9249832
8FF019BD,C9248729
8FF019BE,C9244298
8FF019BF,C9244111
8FF019C0,C92442BB
8FF019C1,C924429C
8FF019C2,C9246BDD
8FF019C3,C92436DD
8FF019C4,C9244293
8FF019C5,C9249FAE
8FF019C6,C9246EDD
8FF019C7,C9247007
8FF019C8,C9246FB6
8FF019C9,C9248316
8FF019CB,C924429B
8FF019CC,C924410A
8FF019CD,C9249700
8FF019CE,C9249730
8FF019CF,C9249719
8FF019D0,C9246EFD
8FF01BE0,C924374F
8FF01BE1,C9248308
8FF01BE2,C9249897
8FF01BE3,C9249877
8FF01BE4,C9248106
8FF01BE5,C924533B
8FF01BE6,C924528A
8FF01BE7,C92452EE
8FF01BE8,C92432E4
8FF01BE9,C92452F4
8FF01BEA,C924524F
8FF01BEB,C9243777
8FF01BEC,C9243302
8FF01BED,C924532F
8FF01BEE,C92453B2
8FF01BEF,C924373A
8FF01BF0,C924372C
8FF01BF1,C92432CD
8FF01BF2,C92452D5
8FF01BF3,C9247DF8
8FF01BF4,C924318C
8FF01BF5,C9247DC7
8FF01BF6,C9243197
8FF01BF7,C9243185
8FF01BF8,C924318D
8FF01BF9,C9243C2C
8FF01BFA,C9247118
8FF01BFB,C9243C4A
8FF01BFC,C9247146
8FF01BFD,C92431C2
8FF01BFE,C9247E10
8FF01BFF,C9247E43
8FF01C00,C9249265
8FF01C01,C9243749
8FF01C02,C9247132
8FF01C03,C924377D
8FF01C05,C9243C27
8FF01C0A,C924926C
8FF01C0B,C9249250
8FF01C0C,C92452F7
8FF01C0D,C92451F1
8FF01C0E,C92432EF
8FF01C0F,C924538F
8FF01C1A,C92450E3
8FF01C1B,C92452B2
8FF01C1C,C924520A
8FF01C1D,C9245403
8FF01C1E,C92450B6
8FF01C1F,C924521A
8FF01C2A,C92432E5
8FF01C2B,C924330F
8FF01C2C,C9245201
8FF01C2D,C9246C9D
8FF01C2E,C9243308
8FF01C2F,C92451E3
8FF01C3A,C9245210
8FF01C3B,C92431C8
8FF01C3C,C92452EA
8FF01C3D,C9245325
8FF01C3E,C9245427
8FF01C3F,C9243265
8FF01C4B,C9245632
8FF01C4C,C924901A
8FF01C4D,C9249B64
8FF01C4E,C9249AF0
8FF01C4F,C92498D8
8FF01C5A,C924924F
8FF01C5B,C9247DA4
8FF01C5C,C92431B4
8FF01C5D,C9248E08
8FF01C9D,C924397F
8FF01CD1,C9246708
8FF01CD2,C9249FC1
8FF01CD3,C924673F
8FF01CD4,C9246700
8FF01CD5,C9244354
8FF01CD6,C9246731
8FF01CD7,C9247894
8FF01CD8,C9246767
8FF01CD9,C92478DD
8FF01CDA,C924573D
8FF01CDB,C9246784
8FF01CDC,C9246777
8FF01CDD,C92483D3
8FF01CDE,C9249E9C
8FF01CDF,C9249E47
8FF01CE0,C9247898
8FF01CE1,C92478A4
8FF01CE2,C924786F
8FF01CE3,C924786D
8FF01CE4,C9248B30
8FF01CE5,C92478BE
8FF01CE6,C9249E9F
8FF01CE7,C9249E57
8FF01CE8,C9246775
8FF01CE9,C924508D
8FF01CEA,C924508F
8FF01CEB,C924506F
8FF01CEC,C9245099
8FF01CED,C92442F8
8FF01CEE,C9247C3E
8FF01CEF,C92451BA
8FF01CF0,C92491D0
8FF01CF1,C924851C
8FF01CF2,C924675F
8FF01CF3,C9246729
8FF01CF4,C92435FA
8FF01CF5,C9247CFB
8FF01CF6,C92491B3
8FF01CF7,C9248511
8FF01CF8,C924509C
8FF01CF9,C9249F50
8FF01CFA,C924505B
8FF01CFB,C924507E
8FF01CFC,C9245066
8FF01CFD,C9245065
8FF01CFE,C9245085
8FF01CFF,C9249205
8FF01D00,C924565A
8FF01D01,C9245704
8FF01D02,C924784B
8FF01D03,C9246749
8FF01D04,C9248559
8FF01D05,C9247895
8FF01D06,C92466A3
8FF01D07,C9248278
8FF01D08,C9247872
8FF01D09,C924A095
8FF01D0A,C924567C
8FF01D0B,C92431B8
8FF01D0C,C9247D37
8FF01D0D,C924535D
8FF01D0E,C9245675
8FF01D0F,C9243165
8FF01D10,C9248582
8FF01D11,C9249FBA
8FF01D12,C92456E7
8FF01D13,C9248514
8FF01D14,C924850E
8FF01D15,C9249F0C
8FF01D17,C9249E7D
8FF01D18,C9249E4D
8FF01D1A,C9248E17
8FF01D1B,C92498C1
8FF01D1C,C92498BB
8FF01D1D,C9248306
8FF01D1E,C9247837
8FF01D1F,C9247827
8FF01D20,C9247C4F
8FF01D21,C9249E6B
8FF01D22,C9249EBA
8FF01D23,C9248386
8FF01D24,C924789D
8FF01D25,C92467A8
8FF01D26,C92447A6
8FF01D27,C92447B2
8FF01D28,C92447C6
8FF01D29,C92447E2
8FF01D2A,C924784F
8FF01D2B,C924989C
8FF01D2C,C92451BC
8FF01D2E,C92466D6
8FF01D2F,C92466AA
8FF01D30,C92447DF
8FF01D31,C92447DD
8FF01D32,C9244194
8FF01D33,C92440A7
8FF01D3A,C92466DD
8FF01D3B,C92466CD
8FF01D3C,C9245376
8FF01D3D,C9243607
8FF01D3E,C9247D6A
8FF01D3F,C92466A7
8FF01F21,C9245214
8FF01F22,C9243336
8FF01F23,C9249862
8FF01F25,C924986C
8FF01F26,C9245337
8FF01F27,C92452CE
8FF01F28,C924986B
8FF01F29,C924374D
8FF01F30,C9245221
8FF01F31,C9243740
8FF01F32,C9245395
8FF01F33,C92451DA
8FF01F34,C92452EF
8FF01F36,C9245301
8FF01F37,C9249855
8FF01F38,C9245389
8FF01F39,C92453A6
8FF01F40,C9245378
8FF01F41,C924329D
8FF01F42,C924372D
8FF01F43,C92436AF
8FF01F44,C9247DCA
8FF01F45,C9247DC2
8FF01F46,C924318B
8FF01F47,C9243C26
8FF01F48,C9243C19
8FF01F49,C9248E04
8FF01F50,C924989E
8FF01F51,C92452C7
8FF01F52,C9247DEF
8FF01F53,C9247E2E
8FF01F54,C9247D7E
8FF01F55,C9249853
8FF01F56,C924923E
8FF01F57,C924533D
8FF01F58,C92451C8
8FF01F59,C92452D9
8FF01F60,C9249895
8FF01F61,C9243358
8FF01F62,C9245305
8FF01F63,C924531D
8FF01F64,C92452A3
8FF01F65,C924523B
8FF01F66,C92432DE
8FF01F67,C92451FE
8FF01F68,C92451D7
8FF01F69,C92432DA
8FF01F70,C92432CE
8FF01F71,C924330E
8FF01F72,C9243850
8FF01F73,C9246F69
8FF01F74,C924830B
8FF01F75,C9246F8D
8FF01F76,C92432AA
8FF01F77,C9243714
8FF01F78,C9245211
8FF01F79,C92452F1
8FF01F80,C9243231
8FF01F81,C924539B
8FF01F82,C92452E6
8FF01F83,C9245415
8FF01F84,C9245439
8FF01F85,C9245B3E
8FF01F87,C9245B51
8FF01F88,C9245633
8FF01F89,C9247D8D
8FF01F91,C92431FC
8FF01F92,C9243C2D
8FF01F93,C9249259
8FF01F94,C9243C39
8FF01F95,C9247D71
8FF01F96,C9247D83
8FF01F97,C9247D77
8FF02040,C924674E
8FF02041,C92466FA
8FF02042,C924785E
8FF02043,C9247870
8FF02044,C924786A
8FF02045,C924672A
8FF02046,C924786B
8FF02047,C924789B
8FF02048,C9246751
8FF02049,C9246761
8FF02050,C924676D
8FF02051,C9246785
8FF02052,C92478B8
8FF02053,C92478E8
8FF02054,C9249EB6
8FF02055,C92478CA
8FF02056,C924679C
8FF02057,C9247C61
8FF02058,C9249EC0
8FF02059,C9247886
8FF02060,C9247897
8FF02061,C9248B66
8FF02062,C9248B2A
8FF02063,C9249EAE
8FF02064,C9249E99
8FF02065,C924511C
8FF02066,C9245116
8FF02067,C9245072
8FF02068,C9245087
8FF02069,C92490B8
8FF02070,C92466A9
8FF02071,C92442EB
8FF02072,C92491C9
8FF02073,C924836E
8FF02074,C9247C4A
8FF02075,C9246741
8FF02076,C92466C6
8FF02077,C92435EC
8FF02078,C924676B
8FF02079,C9247D18
8FF02080,C92491B8
8FF02081,C9249F8E
8FF02082,C9245357
8FF02083,C9245090
8FF02084,C924507A
8FF02085,C924505A
8FF02086,C9245128
8FF02087,C9249088
8FF02088,C9245352
8FF02089,C9245666
8FF02090,C9247AC0
8FF02091,C924506C
8FF02092,C9245050
8FF02093,C92450E6
8FF02094,C9245645
8FF02095,C924676C
8FF02096,C9246730
8FF02098,C9243BEE
8FF02099,C924503B
8FF020A0,C9247CFC
8FF020A1,C9245185
8FF020A2,C92498C5
8FF020A3,C92498B4
8FF020A4,C9245181
8FF020A5,C92498A1
8FF020A6,C924782F
8FF020A7,C9247824
8FF020A8,C924501B
8FF020A9,C9247845
8FF020AA,C924781B
8FF020AB,C9247857
8FF020AC,C924785D
8FF020AD,C924776F
8FF020AE,C92451A2
8FF020AF,C92451B9
8FF020B0,C924517E
8FF020B1,C9249927
8FF020B2,C92451B1
8FF020B3,C9245193
8FF020B4,C9246743
8FF020B5,C92466D2
8FF020B6,C924672E
8FF020B7,C9246750
8FF020B8,C924511D
8FF020B9,C9247D69
8FF020BA,C9244347
8FF020BB,C9243602
8FF020BC,C9248585
8FF020BD,C9247D28
8FF020BE,C92485A7
8FF020BF,C9248573
8FF020C0,C92485B9
8FF020C1,C92466C7
8FF020C2,C92466B1
8FF020C3,C92466A0
8FF020C4,C92466AC
8FF020C5,C924669A
8FF020C6,C9247DB5
8FF020C7,C9249904
8FF020C8,C92436FA
8FF020C9,C924375D
8FF020CA,C9246C9B
8FF020CB,C92432E6
8FF020CC,C92450D3
8FF020CD,C9243767
8FF020CE,C9248588
8FF020CF,C924856B
8FF020D0,C9248589
8FF020D1,C924674A
8FF020D2,C9248299
8FF020D3,C9248568
8FF020D4,C924855C
8FF020D5,C924857B
8FF020D6,C92483A1
8FF020D7,C92464AD
8FF020D8,C9245682
8FF020D9,C9245A98
8FF020DA,C9245715
8FF020DB,C9248EB0
8FF020DC,C92456CA
8FF020DD,C9248EAB
8FF020DE,C9249FA9
8FF020DF,C9249FAD
8FF020E0,C9249FB4
8FF020E1,C9249E9D
8FF020E2,C9248EB5
8FF020E3,C9249F7D
8FF020E4,C9248523
8FF020E5,C9249ECC
8FF020E6,C9249E71
8FF020E7,C9249E76
8FF020E8,C924852C
8FF020E9,C9249F7A
8FF020EA,C924837A
8FF020EB,C9248541
8FF020EE,C9247C55
8FF020EF,C9249E63
8FF020F0,C924788A
8FF020F1,C9249EA8
8FF020F2,C9246774
8FF020F3,C924787E
8FF020F4,C924789C
8FF020F5,C9247887
8FF020F6,C924787B
8FF020F7,C92447A2
8FF020F8,C92447D2
8FF020F9,C92447BF
8FF020FA,C92447E3
8FF020FB,C92447C8
8FF020FC,C92447D7
8FF020FD,C92440C5
8FF020FE,C92440DB
8FF020FF,C9244181
8FF0213E,C92440A1
8FF02369,C924528E
8FF02370,C92436A2
8FF02371,C9245433
8FF02372,C9243C20
8FF02373,C92480FD
8FF02374,C924525B
8FF02375,C92451D4
8FF02376,C924986D
8FF02377,C92452EB
8FF02378,C92452F3
8FF02379,C9245383
8FF02381,C9249896
8FF02382,C9245331
8FF02383,C92432FB
8FF02384,C92452E1
8FF02385,C9245445
8FF02386,C92453AC
8FF02387,C92453A0
8FF02388,C9243708
8FF02389,C92452A6
8FF02390,C924529D
8FF02391,C92491A4
8FF02392,C9243C1E
8FF02393,C924319B
8FF02394,C92432A3
8FF02395,C92491D6
8FF02396,C9247130
8FF02397,C9247127
8FF02398,C9243C37
8FF02399,C9247159
8FF023A0,C92431F7
8FF023A1,C9247E16
8FF023A2,C9247E3D
8FF023A3,C9247E22
8FF023A4,C9247D70
8FF023A5,C9249238
8FF023A6,C9245315
8FF023A7,C92480E1
8FF023A8,C9249861
8FF023A9,C92450D1
8FF023AA,C9245205
8FF023AB,C9243353
8FF023AC,C9245317
8FF023AD,C924524D
8FF023AE,C9245421
8FF023AF,C9245409
8FF023B0,C92452BE
8FF023B1,C92450A9
8FF023B2,C92451BF
8FF023B3,C9243301
8FF023B4,C924521F
8FF023B5,C92432FD
8FF023B6,C92432F0
8FF023B7,C92451EF
8FF023B8,C92432D5
8FF023B9,C92451CE
8FF023BA,C9249301
8FF023BB,C9249816
8FF023BC,C9249851
8FF023BD,C924370A
8FF023BE,C9243789
8FF023BF,C9243783
8FF023C0,C924530E
8FF023C1,C9245316
8FF023C2,C9245319
8FF023C3,C9245250
8FF023C4,C924541D
8FF023C5,C9245417
8FF023C7,C9243B5C
8FF023C8,C9249B1E
8FF023C9,C924836F
8FF023CA,C92491F2
8FF023CB,C9249AFC
8FF023CC,C9248EC8
8FF023CD,C9243C3F
8FF023CE,C92431E8
8FF023CF,C9249255
8FF023D1,C9247D9F
8FF024A9,C9246760
8FF024AA,C9246770
8FF024AB,C924674C
8FF024AC,C9244342
8FF024AD,C9246733
8FF024AE,C924677F
8FF024AF,C924672D
8FF024B0,C92478B2
8FF024B1,C924675E
8FF024B2,C92478A6
8FF024B3,C9247860
8FF024B4,C92467B5
8FF024B5,C924678C
8FF024B6,C9246788
8FF024B7,C9246779
8FF024B8,C9246791
8FF024B9,C92483C7
8FF024BA,C9247880
8FF024BB,C9247874
8FF024BC,C9249E85
8FF024BD,C924789E
8FF024BE,C9248B36
8FF024BF,C9247879
8FF024C0,C9249E87
8FF024C1,C9249EC6
8FF024C2,C9249EC8
8FF024C3,C9245060
8FF024C4,C9245063
8FF024C5,C924506B
8FF024C6,C92450E5
8FF024C7,C9245081
8FF024C8,C9245094
8FF024C9,C92431EA
8FF024CA,C9247C44
8FF024CB,C9248350
8FF024CC,C92431E4
8FF024CD,C9248374
8FF024CE,C9249F71
8FF024CF,C9246759
8FF024D0,C92453B4
8FF024D1,C9247D26
8FF024D2,C9243C10
8FF024D3,C9248520
8FF024D4,C924317E
8FF024D5,C9248502
8FF024D6,C9245080
8FF024D7,C9245098
8FF024D8,C924506D
8FF024D9,C9245096
8FF024DA,C9245660
8FF024DB,C9243917
8FF024DC,C92450E4
8FF024DD,C92491C4
8FF024DE,C9245057
8FF024DF,C924564B
8FF024E0,C924564C
8FF024E1,C9245046
8FF024E2,C9245017
8FF024E4,C9245042
8FF024E5,C924317A
8FF024E6,C9247B41
8FF024E7,C92431A2
8FF024E8,C9245196
8FF024EA,C92498CC
8FF024EB,C924517F
8FF024EC,C9245184
8FF024ED,C92498C6
8FF024EE,C9247851
8FF024EF,C924A538
8FF024F0,C9247850
8FF024F1,C924782D
8FF024F2,C9247821
8FF024F3,C924502D
8FF024F4,C924783F
8FF024F5,C924500E
8FF024F6,C92498B3
8FF024F7,C9245192
8FF024F8,C9243863
8FF024F9,C9245180
8FF024FA,C92436E5
8FF024FB,C92498B5
8FF024FC,C9245199
8FF024FD,C92466D0
8FF024FE,C92466CA
8FF024FF,C9245187
8FF02500,C92466DE
8FF02501,C92485BF
8FF02502,C9248547
8FF02503,C924856F
8FF02504,C924855E
8FF02505,C924854B
8FF02506,C9246772
8FF02507,C9243280
8FF02508,C9247B8C
8FF02509,C924566F
8FF0250A,C9246735
8FF0250B,C92466C8
8FF0250C,C9247D5D
8FF0250E,C92466DF
8FF0250F,C92498EA
8FF02510,C9243275
8FF02511,C9245604
8FF02512,C92456E0
8FF02513,C92498D3
8FF02514,C9245703
8FF02516,C9249EF6
8FF02517,C9249E65
8FF02518,C924834A
8FF02519,C92491D5
8FF0251A,C92466B7
8FF0251B,C9245366
8FF0251C,C9243773
8FF0251D,C92450E0
8FF0251E,C924854D
8FF0251F,C924856A
8FF02520,C9249E83
8FF02521,C9249EF0
8FF02524,C9249EEB
8FF02525,C92478A1
8FF02526,C9247873
8FF02527,C9247878
8FF02528,C924787A
8FF02529,C924789F
8FF0252A,C92466BB
8FF0252B,C924855F
8FF0252C,C9248293
8FF0252D,C92482E0
8FF0252E,C924857A
8FF0252F,C9248556
8FF02530,C9247881
8FF02531,C92447D9
8FF02532,C92447CC
8FF02533,C92447B5
8FF02534,C92447A3
8FF02535,C92447BC
8FF02536,C92447CB
8FF02537,C9244099
8FF02538,C92440D6
8FF02539,C924409A
8FF027B2,C92450DE
8FF027B3,C92480DE
8FF027B4,C92432D0
8FF027B5,C9249866
8FF027B6,C9243335
8FF027B7,C92452A1
8FF027B8,C9249872
8FF027B9,C92453A7
8FF027BA,C92452F9
8FF027BB,C9246CA9
8FF027BC,C92451E0
8FF027BD,C92452E4
8FF027BE,C92452FA
8FF027BF,C9245303
8FF027C0,C9245289
8FF027C1,C924810C
8FF027C2,C924536C
8FF027C3,C92451C3
8FF027C4,C924530B
8FF027C5,C924373E
8FF027C6,C92452B5
8FF027C7,C9243746
8FF027C8,C9247DF1
8FF027C9,C9243191
8FF027CA,C924318F
8FF027CB,C92491C2
8FF027CC,C92491B7
8FF027CD,C92436D1
8FF027CE,C9249264
8FF027CF,C9247117
8FF027D0,C9247126
8FF027D1,C9247120
8FF027D2,C9247E36
8FF027D3,C9249279
8FF027D4,C9247DF4
8FF027D5,C9249232
8FF027D6,C92432BB
8FF027D7,C92451FD
8FF027D8,C924542D
8FF027D9,C924540C
8FF027DA,C92452DA
8FF027DB,C924371B
8FF027DC,C9245251
8FF027DD,C92432F7
8FF027DE,C92452AE
8FF027DF,C92451C5
8FF027E0,C9243314
8FF027E1,C92432D4
8FF027E2,C9243309
8FF027E3,C92497CC
8FF027E4,C9246F6F
8FF027E5,C9246F87
8FF027E6,C9245329
8FF027E7,C924383F
8FF027E8,C92452C2
8FF027E9,C92497F7
8FF027EA,C92451E2
8FF027EB,C9243765
8FF027EC,C924530F
8FF027ED,C924523C
8FF027EE,C92432C1
8FF027EF,C9245411
8FF027F0,C92453B3
8FF027F1,C92453BA
8FF027F3,C92430F2
8FF027F4,C9243088
8FF027F5,C9245950
8FF027F6,C9249B2F
8FF027F7,C9243B19
8FF027F8,C9243C15
8FF027F9,C9243C1B
8FF027FA,C92431EE
8FF027FB,C92431AD
8FF027FC,C92431B9
8FF027FD,C9247D7D
8FF027FE,C92498DE
8FF028D4,C9249925
8FF028D5,C92498AB
8FF028D6,C9246742
8FF028D7,C924851A
8FF028D8,C924673E
8FF028D9,C9246738
8FF028DA,C9247877
8FF028DB,C9247871
8FF028DC,C924675B
8FF028DD,C9246762
8FF028DE,C924788E
8FF028DF,C924677E
8FF028E0,C924676E
8FF028E1,C924787D
8FF028E2,C92478AC
8FF028E3,C92478C4
8FF028E4,C9247866
8FF028E5,C92483CD
8FF028E6,C9243269
8FF028E7,C9247891
8FF028E8,C9247875
8FF028E9,C9247863
8FF028EA,C9248B3C
8FF028EB,C9248B42
8FF028EC,C9249EC7
8FF028ED,C9249E86
8FF028EE,C9248B60
8FF028EF,C9249E8B
8FF028F0,C924512E
8FF028F1,C9245095
8FF028F2,C924508E
8FF028F3,C924509A
8FF028F4,C92442E7
8FF028F5,C9249F64
8FF028F6,C924434E
8FF028F7,C9249E40
8FF028F8,C92431E0
8FF028F9,C9249F5F
8FF028FA,C92466CE
8FF028FB,C92498A0
8FF028FC,C92466B0
8FF028FD,C92435F1
8FF028FE,C92435E5
8FF028FF,C9249F89
8FF02900,C9243186
8FF02901,C92467A2
8FF02902,C924853D
8FF02903,C9244327
8FF02904,C9249CF4
8FF02905,C9245033
8FF02906,C92498D9
8FF02907,C92497E8
8FF02908,C92498A8
8FF02909,C9243894
8FF0290A,C924534A
8FF0290B,C9249F44
8FF0290C,C9245083
8FF0290D,C924508C
8FF0290E,C9245073
8FF0290F,C9243177
8FF02910,C92498A6
8FF02911,C924785B
8FF02912,C9247849
8FF02913,C9248577
8FF02914,C9247856
8FF02915,C9247820
8FF02916,C9247839
8FF02917,C9245178
8FF02918,C92490AD
8FF02919,C9245198
8FF0291A,C924676A
8FF0291B,C9245025
8FF0291C,C924392A
8FF0291D,C9243171
8FF0291E,C9245681
8FF0291F,C9245656
8FF02920,C924518A
8FF02921,C92451BD
8FF02922,C92498BC
8FF02923,C92466BC
8FF02924,C924674D
8FF02925,C9247D57
8FF02926,C9247D63
8FF02927,C924857F
8FF02928,C9247D64
8FF02929,C92485B3
8FF0292A,C9245040
8FF0292B,C924501D
8FF0292C,C9245055
8FF0292D,C9245034
8FF0292E,C9245016
8FF0292F,C9245651
8FF02930,C92485AD
8FF02931,C9249911
8FF02932,C92466B3
8FF02A10,C9247DB6
8FF02A11,C9246C3B
8FF02A12,C9248298
8FF02A13,C9247DB9
8FF02A14,C9247116
8FF02A15,C9249916
8FF02A16,C924828C
8FF02A17,C9249FD4
8FF02A18,C9249FA5
8FF02A19,C9245075
8FF02A20,C9247BAB
8FF02A21,C92442F2
8FF02A22,C9243033
8FF02A23,C9249E06
8FF02A24,C9246CA2
8FF02A25,C9249EE6
8FF02A26,C9249F16
8FF02A27,C9246C70
8FF02A28,C9247778
8FF02A29,C92451AF
8FF02A30,C92451B5
8FF02A31,C9246723
8FF02A32,C92466F5
8FF02A33,C924787C
8FF02A34,C92466E4
8FF02A35,C9247B70
8FF02A36,C9247D02
8FF02A37,C92456E6
8FF02A38,C9249EA1
8FF02A39,C92456A8
8FF02A40,C9249720
8FF02A41,C9246E58
8FF02A42,C9249726
8FF02A43,C9248516
8FF02A44,C9247B84
8FF02A45,C9245A1D
8FF02A46,C924482A
8FF02A47,C9246EB2
8FF02A48,C92447ED
8FF02A49,C92440B0
8FF02A50,C92440C7
8FF02A51,C924480B
8FF02A52,C9244098
8FF02A53,C9244047
8FF02A54,C92440D9
8FF02A55,C9249F41
8FF02A56,C9249842
8FF02A57,C9249813
8FF02A58,C924983F
8FF02A59,C924418C
8FF02A60,C92441B1
8FF02A61,C9246E6F
8FF02A62,C9246C4E
8FF02A63,C9246C7C
8FF02A64,C9246C6A
8FF02A65,C9246C46
8FF02A66,C924501C
8FF02A67,C92442C1
8FF02A68,C92442D0
8FF02A69,C9244292
8FF02A70,C92442BE
8FF02A71,C9244125
8FF02A72,C924429F
8FF02A73,C9246EE6
8FF02A74,C92442AE
8FF02A75,C924504B
8FF02A76,C9249844
8FF02A77,C9247E65
8FF02A78,C924985E
8FF02A79,C9246FCE
8FF02A80,C9246EA5
8FF02A81,C92442D1
8FF02A82,C9246E8A
8FF02A83,C9244046
8FF02A85,C9244295
8FF02A86,C9249724
8FF02A87,C92442AD
8FF02A88,C924428F
8FF02A89,C9244281
8FF02A9E,C92451FA
8FF02A9F,C9242FA8
8FF02B01,C9245793
8FF02B02,C9244707
8FF02B03,C9248297
8FF02B04,C92483A9
8FF02B05,C9243C89
8FF02B06,C9246D05
8FF02B07,C9249EC9
8FF02B0A,C92447F2
8FF02B0D,C9249782
8FF02B0E,C9249789
8FF02B0F,C92497A6
8FF02B1A,C9249787
8FF02B1B,C9242F72
8FF02B1C,C9246E59
8FF02B1D,C9247B4F
8FF02B1E,C9244706
8FF02B1F,C92446CF
8FF02B2A,C9244107
8FF02B2B,C92442C2
8FF02B2C,C924478A
8FF02B2D,C9249E1A
8FF02B2E,C92483A8
8FF02B2F,C92435ED
8FF02B3A,C92446DC
8FF02B3B,C924360D
8FF02B3C,C92483AE
8FF02B3D,C9249E14
8FF02B3E,C92483A3
8FF02B3F,C9246E57
8FF02B4A,C924872A
8FF02B4B,C9249CF5
8FF02B4C,C9249D01
8FF02B4D,C924435E
8FF02B4E,C924978A
8FF02B4F,C9249376
8FF02B5A,C9243CA1
8FF02B5B,C9249237
8FF02B5C,C9243752
8FF02B5D,C92452BA
8FF02B5E,C9243E2A
8FF02B5F,C9243E30
8FF02B6A,C9243E8D
8FF02B6B,C9243E99
8FF02B6C,C9249D12
8FF02B6D,C9244364
8FF02B6E,C924434C
8FF02B6F,C9249E94
8FF02B7A,C9249E95
8FF02B7C,C9248280
8FF02B7D,C924829D
8FF02B7E,C9247B5C
8FF02B7F,C9245135
8FF02B8A,C924394C
8FF02C86,C92473B7
8FF02C87,C9248215
8FF02C88,C9248228
8FF02C89,C9246A87
8FF02C90,C92481EB
8FF02C91,C9248750
8FF02C92,C924864A
8FF02C93,C9248768
8FF02C94,C9248652
8FF02C95,C924877C
8FF02C96,C9249499
8FF02C97,C9248901
8FF02C98,C9249464
8FF02C99,C9249478
8FF02CA0,C9248248
8FF02CA1,C9249415
8FF02CA2,C924876D
8FF02CA3,C92493FB
8FF02CA4,C924873F
8FF02CA5,C9248780
8FF02CA6,C9244B89
8FF02CA7,C9247C58
8FF02CA9,C9248771
8FF02CAA,C9248803
8FF02CAB,C92473D6
8FF02CAC,C9248905
8FF02CAD,C9248199
8FF02CAE,C9248998
8FF02CAF,C924890C
8FF02D36,C9243278
8FF02D37,C924A543
8FF02D38,C9242F9D
8FF02D39,C9245781
8FF02D3B,C924519E
8FF02D3C,C9247D2E
8FF02D3D,C92466BE
8FF02D3E,C924669B
8FF02D3F,C92466C5
8FF02D40,C9242FAE
8FF02D41,C92497A2
8FF02D42,C9246C72
8FF02D43,C9245194
8FF02D44,C9246C42
8FF02D45,C9246C4C
8FF02D46,C9245373
8FF02D47,C9243C43
8FF02D48,C924A07E
8FF02D49,C9247766
8FF02D4A,C92466C0
8FF02D4B,C92436F0
8FF02D4C,C9243702
8FF02D4D,C92436F5
8FF02D4E,C92450CA
8FF02D4F,C9243BA1
8FF02D50,C92450CF
8FF02D51,C9243792
8FF02D52,C9247BF7
8FF02D53,C92491CD
8FF02D54,C92436EC
8FF02D55,C9249F72
8FF02D56,C9249FDB
8FF02D57,C9245068
8FF02D58,C9245086
8FF02D59,C9245074
8FF02D5A,C9246778
8FF02D5B,C9246C9C
8FF02D5C,C9248583
8FF02D5D,C924676F
8FF02D5E,C9246745
8FF02D5F,C92478A3
8FF02D60,C9245121
8FF02D61,C9247BBD
8FF02D62,C9245079
8FF02D63,C924574C
8FF02D64,C9247B97
8FF02D65,C9242E1B
8FF02D66,C9248B52
8FF02D67,C9242E30
8FF02D68,C9249EAD
8FF02D69,C9248704
8FF02D6A,C9248545
8FF02D6B,C9248569
8FF02D6C,C9248565
8FF02D6D,C9248575
8FF02D6E,C9248518
8FF02D6F,C9247B79
8FF02D70,C9245AA0
8FF02D71,C9249F2A
8FF02D72,C9246C40
8FF02D73,C9249F3D
8FF02D74,C924A080
8FF02D75,C9249097
8FF02D77,C924909A
8FF02D78,C9247782
8FF02D7A,C92456C4
8FF02D7B,C9248EA3
8FF02D7C,C9247C27
8FF02D7D,C92440DA
8FF02D80,C9247770
8FF02D81,C924972C
8FF02D82,C9246E50
8FF02D83,C9249732
8FF02D84,C9248515
8FF02D85,C924852D
8FF02D86,C9248535
8FF02D87,C92484FE
8FF02D88,C92447EE
8FF02D89,C92447B3
8FF02D90,C92447E8
8FF02D91,C92440DC
8FF02D92,C92440A3
8FF02D93,C924411A
8FF02D94,C92440AB
8FF02D95,C92440FC
8FF02D96,C92440F6
8FF02D97,C9244102
8FF02D98,C9249836
8FF02D99,C924983C
8FF02D9A,C9249F4A
8FF02DA0,C9249838
8FF02DA1,C9242F82
8FF02DA2,C9249831
8FF02DA3,C924416C
8FF02DA4,C924980D
8FF02DA5,C9249F31
8FF02DA6,C9244814
8FF02DA7,C9249EB9
8FF02DA8,C924412B
8FF02DA9,C92442B4
8FF02DAA,C9244296
8FF02DAB,C92442B7
8FF02DAC,C9246BE1
8FF02DAD,C924412C
8FF02DAE,C9246F06
8FF02DAF,C9246E3B
8FF02DB0,C9246EEC
8FF02DB1,C9246E94
8FF02DB2,C92498D1
8FF02DB3,C9249820
8FF02DB4,C92498DD
8FF02DB5,C9246FDA
8FF02DB6,C9246E87
8FF02DB7,C92441A6
8FF02DB8,C9246EB8
8FF02DB9,C92496FF
8FF02DBA,C9249712
8FF02DBC,C9246EC7
8FF02E08,C9249E24
8FF02E09,C9246E37
8FF02E10,C9244775
8FF02E11,C924871F
8FF02E12,C9248719
8FF02E13,C92446F0
8FF02E14,C92446CC
8FF02E15,C9247D0D
8FF02E16,C92435F5
8FF02E17,C9249E0D
8FF02E18,C9249E03
8FF02E19,C924483F
8FF02E20,C92483AF
8FF02E21,C9248722
8FF02E22,C9249D1F
8FF02E23,C9247AE6
8FF02E24,C9249D14
8FF02E25,C9249796
8FF02E26,C9249359
8FF02E27,C9249353
8FF02E28,C92443A6
8FF02E29,C9244382
8FF02E30,C9243C94
8FF02E32,C924586A
8FF02E33,C92491B1
8FF02E34,C9243C88
8FF02E35,C9247135
8FF02E36,C924486D
8FF02E37,C9243E36
8FF02E38,C9243C77
8FF02E39,C9243E4E
8FF02E40,C924584A
8FF02E41,C9249D24
8FF02E42,C92486FE
8FF02E43,C924318A
8FF02E44,C9245850
8FF02E45,C9249EB7
8FF02E46,C9245141
8FF02E47,C9248B65
8FF02E52,C92482B7
8FF02E53,C9249EC5
8FF02E55,C9242E3B
8FF02E7B,C9245136
8FF02E7D,C9245022
8FF02E8A,C9243E74
8FF02E8B,C92497A0
8FF02E8C,C9249794
8FF02E8D,C9249799
8FF02E8E,C924978E
8FF02E8F,C9246E46
8FF02E9A,C9248283
8FF02E9B,C92446E4
8FF02E9C,C92446DE
8FF02E9D,C924475A
8FF02E9E,C9247B37
8FF02E9F,C9244763
8FF03001,C924749D
8FF03009,C9249D64
8FF03010,C9248744
8FF03011,C9248657
8FF03012,C9248762
8FF03013,C924877F
8FF03014,C924949E
8FF03015,C924A42B
8FF03016,C924947E
8FF03017,C9248242
8FF03018,C92493D8
8FF03019,C924948D
8FF03020,C9246A85
8FF03021,C92468B1
8FF03022,C92475DD
8FF03023,C9248745
8FF03024,C9248842
8FF03025,C9249493
8FF03027,C9248761
8FF03028,C92487BF
8FF03029,C9246AD7
8FF03030,C9248925
8FF03031,C924891F
8FF03032,C9248190
8FF03033,C9248180
8FF03034,C92488F9
8FF0308A,C9246AEB
8FF0308B,C9247790
8FF0308C,C9246A46
8FF0308D,C9246A63
8FF0308E,C9246A74
8FF0308F,C924821B
8FF0309A,C9246A7C
8FF0309B,C92481F9
8FF0309C,C924823B
8FF0309D,C9248651
8FF0309E,C9248658
8FF0309F,C924823C
8FF031CC,C92489BF
8FF031CD,C9246AE6
8FF031CE,C9244A23
8FF031CF,C9243941
8FF031D0,C92493F8
8FF031D1,C9246E2F
8FF031D2,C9246A44
8FF031D3,C9246AC8
8FF031D4,C9246ABB
8FF031D5,C9246AA6
8FF031D6,C9246A81
8FF031D7,C924820B
8FF031D8,C9246A69
8FF031D9,C9248640
8FF031DA,C924941A
8FF031DB,C9249414
8FF031DC,C92434DE
8FF031DD,C924780D
8FF031DE,C9246A79
8FF031DF,C9248656
8FF031E0,C92481FE
8FF031E1,C924A413
8FF031E2,C9248259
8FF031E3,C9248253
8FF031E4,C92481F2
8FF031E5,C9248851
8FF031E6,C924864C
8FF031E7,C924865D
8FF031E8,C9249403
8FF031E9,C924946B
8FF031EA,C924873D
8FF031EB,C924949F
8FF031EC,C92494A1
8FF031ED,C92493F0
8FF031EE,C92473BB
8FF031EF,C9245DB4
8FF031F0,C92468CC
8FF031F1,C9248763
8FF031F2,C924877A
8FF031F3,C924785C
8FF031F4,C92454C0
8FF031F5,C9248777
8FF031F6,C924948B
8FF031F7,C92487B9
8FF031F8,C92487AE
8FF031F9,C924879C
8FF031FA,C9248931
8FF031FB,C9248156
8FF031FC,C92488EE
8FF031FD,C9248183
8FF031FE,C9248922
8FF03530,C92493DB
8FF03531,C9247480
8FF03532,C9246B6F
8FF03533,C9249937
8FF03534,C9246AD0
8FF03535,C9246A5C
8FF03536,C9246AB7
8FF03537,C9248223
8FF03538,C92481FF
8FF03539,C92481ED
8FF03540,C9248209
8FF03541,C924821D
8FF03542,C924A083
8FF03543,C92481F7
8FF03544,C9244D8E
8FF03545,C9248779
8FF03546,C924A491
8FF03547,C924A29B
8FF03548,C924A497
8FF03549,C9248650
8FF03550,C92474AA
8FF03551,C9248632
8FF03552,C924861E
8FF03553,C9248620
8FF03554,C9248644
8FF03555,C9248246
8FF03556,C92485E4
8FF03557,C924864B
8FF03558,C924824C
8FF03559,C9248646
8FF03560,C924861B
8FF03561,C9248756
8FF03562,C9248627
8FF03563,C9248773
8FF03564,C9248247
8FF03565,C9246AF1
8FF03566,C9246ADD
8FF03567,C924873B
8FF03568,C924949B
8FF03569,C9248741
8FF03570,C9249496
8FF03571,C9248236
8FF03572,C92493D7
8FF03573,C924743F
8FF03574,C9247456
8FF03575,C924947D
8FF03576,C924865E
8FF03577,C924876E
8FF03578,C9248751
8FF03579,C924874B
8FF03580,C924501E
8FF03581,C92494A8
8FF03582,C92487F1
8FF03583,C92487FD
8FF03584,C924822A
8FF03585,C92487A8
8FF03586,C92489A4
8FF03587,C9248906
8FF03588,C9248992
8FF03589,C92489AC
8FF0358E,C92489C5
8FF0358F,C9247393
8FF03590,C924826A
8FF03591,C924899E
8FF0359A,C9247397
8FF0359B,C9246B16
8FF0359C,C9247410
8FF0359D,C924749E
8FF0359E,C9247795
8FF0359F,C92436BC
8FF03A01,C9248937
8FF03A02,C9248571
8FF03A03,C92456BC
8FF03A04,C92456BE
8FF03A05,C92484FF
8FF03A06,C9249ED2
8FF03A07,C924786E
8FF03A08,C92447D4
8FF03A09,C92440C3
8FF03A0C,C92466AE
8FF03A0D,C9243788
8FF03A0E,C92450D6
8FF03A0F,C92480F7
8FF03A1A,C92450C6
8FF03A1B,C9243782
8FF03A1C,C92482CE
8FF03A1D,C92436EF
8FF03A1E,C924827E
8FF03A1F,C924533F
8FF03A2A,C9245015
8FF03A2B,C924855D
8FF03A2C,C9248558
8FF03A2D,C9248581
8FF03A2E,C924361D
8FF03A2F,C9248512
8FF03A3A,C924326F
8FF03A3B,C92456B7
8FF03A3C,C9245641
8FF03A3D,C924839B
8FF03A3E,C9245711
8FF03A3F,C9249FB9
8FF03A49,C9249F6F
8FF03A4A,C9245709
8FF03A4B,C92456EE
8FF03A4C,C924851E
8FF03A4D,C9249E9A
8FF03A4E,C9249EAC
8FF03A4F,C92456D0
8FF03A5A,C9249ED6
8FF03A5B,C9245639
8FF03A5C,C9248517
8FF03A5D,C9248526
8FF03A5E,C9248553
8FF03A5F,C9249F86
8FF03A6A,C9248356
8FF03A6B,C9249E7C
8FF03A6C,C9249F0E
8FF03A6E,C9249EA4
8FF03A7A,C9247862
8FF03A7B,C9247892
8FF03A7C,C9247899
8FF03A7D,C924677B
8FF03A7E,C9247861
8FF03A7F,C924788C
8FF03A85,C92482B5
8FF03A86,C9246752
8FF03A87,C924530C
8FF03A88,C9242F78
8FF03A89,C9245775
8FF03A8A,C92467B4
8FF03A8B,C92447C3
8FF03A8C,C92447B9
8FF03A8D,C92447DC
8FF03A8E,C92447C0
8FF03A8F,C924409F
8FF03A90,C9242FA2
8FF03A91,C9247E74
8FF03A92,C9242FAF
8FF03A93,C924579D
8FF03A94,C9247E62
8FF03A95,C9245153
8FF03A96,C9242E08
8FF03A97,C9246C55
8FF03A98,C9249104
8FF03A99,C9246C3D
8FF03A9A,C92440A4
8FF03A9B,C924423A
8FF03A9C,C9244043
8FF03A9D,C9244240
8FF03AA0,C9246C50
8FF03AA1,C92450D4
8FF03AA2,C92432CF
8FF03AA3,C9243BC2
8FF03AA4,C92431DA
8FF03AA5,C924A07F
8FF03AA6,C92431D1
8FF03AA7,C9246C3E
8FF03AA8,C92450DF
8FF03AA9,C9247C05
8FF03AAA,C92450DB
8FF03AAB,C9245759
8FF03AAC,C9245734
8FF03AAD,C92491B5
8FF03AAE,C924827B
8FF03AAF,C92482DF
8FF03AB0,C92491A3
8FF03AB1,C9247BE7
8FF03AB2,C92431E6
8FF03AB3,C9249266
8FF03AB4,C9249F8F
8FF03AB5,C9249F9C
8FF03AB6,C9249F85
8FF03AB7,C9249FBC
8FF03AB8,C9249FA6
8FF03AB9,C9249F67
8FF03ABA,C924908E
8FF03ABB,C924505C
8FF03ABC,C924507F
8FF03ABD,C92450EB
8FF03ABE,C9245084
8FF03ABF,C924572D
8FF03AC0,C924573E
8FF03AC1,C9245773
8FF03AC2,C9242FCA
8FF03AC3,C9242FBE
8FF03AC4,C9249E00
8FF03AC5,C9246C59
8FF03AC6,C9249EA0
8FF03AC7,C92467B2
8FF03AC8,C9249F4D
8FF03AC9,C9249F49
8FF03ACA,C9249F1E
8FF03ACB,C92482A8
8FF03ACC,C9249F1F
8FF03ACD,C9246C60
8FF03ACE,C92478D3
8FF03ACF,C9249EDC
8FF03AD0,C9249F17
8FF03AD1,C92478CD
8FF03AD3,C9245686
8FF03AD4,C924427D
8FF03AD5,C92442B8
8FF03AD6,C92442A4
8FF03AD7,C9246E56
8FF03AD8,C924425D
8FF03AD9,C92442BD
8FF03ADA,C9244132
8FF03ADB,C9246BE7
8FF03ADC,C92440E3
8FF03ADD,C9246ED2
8FF03ADE,C9246ED5
8FF03ADF,C9246F01
8FF03AE0,C9246EBF
8FF03AE1,C9246EB7
8FF03AE2,C9246E9F
8FF03AE3,C9246FBC
8FF03AE4,C9249887
8FF03AE5,C9246E8F
8FF03AE6,C9246FB0
8FF03AE7,C9246EA4
8FF03AE8,C9248317
8FF03AE9,C9249705
8FF03AEA,C9249717
8FF03AEB,C9249729
8FF03B42,C9247B43
8FF03B43,C92447C7
8FF03B45,C924485D
8FF03B47,C9244830
8FF03B48,C92451B8
8FF03B49,C9246EE7
8FF03B50,C92497A3
8FF03B51,C9245165
8FF03B52,C924977C
8FF03B53,C9249788
8FF03B54,C9245787
8FF03B55,C9249EB5
8FF03B56,C9246F07
8FF03B57,C9246EFA
8FF03B58,C9249E74
8FF03B59,C9246E53
8FF03B60,C92446CA
8FF03B61,C924475D
8FF03B62,C924479D
8FF03B63,C9247B4A
8FF03B64,C9244769
8FF03B65,C9244760
8FF03B66,C9249E08
8FF03B67,C9247D0C
8FF03B68,C9247CD9
8FF03B69,C92435E7
8FF03B70,C9243604
8FF03B71,C92431A9
8FF03B72,C92483BA
8FF03B73,C92483D8
8FF03B74,C9248397
8FF03B75,C9249E0E
8FF03B76,C924486E
8FF03B77,C9249CFC
8FF03B78,C92483B5
8FF03B79,C92486F8
8FF03B80,C9248734
8FF03B81,C924A0A5
8FF03B82,C9244328
8FF03B83,C92497A1
8FF03B84,C9249795
8FF03B85,C92497B9
8FF03B86,C92497BF
8FF03B87,C9243C61
8FF03B88,C9245B5D
8FF03B89,C9243C73
8FF03B90,C9243C82
8FF03B91,C9243C6B
8FF03B92,C9249201
8FF03B93,C92452C4
8FF03B94,C92436C7
8FF03B95,C92491E2
8FF03B96,C924520F
8FF03B97,C92497C6
8FF03B98,C9243E48
8FF03B99,C92491B9
8FF03BA0,C9243E86
8FF03BA1,C9243E54
8FF03BA2,C9245863
8FF03BA3,C9244333
8FF03BA4,C9244329
8FF03BA5,C9249D1A
8FF03BA6,C92451AC
8FF03BA7,C9249E30
8FF03BA8,C9249EC3
8FF03BAA,C9249E12
8FF03BAE,C9248289
8FF03BAF,C92482A3
8FF03BB0,C9248282
8FF03BB1,C9242F8A
8FF03D69,C9249935
8FF03D71,C924585A
8FF03D72,C9246564
8FF03D73,C924737F
8FF03D74,C9247484
8FF03D75,C9247B08
8FF03D76,C9243846
8FF03D77,C9247475
8FF03D78,C9246A73
8FF03D79,C9246A9F
8FF03D80,C92471D1
8FF03D81,C9248203
8FF03D82,C92493F2
8FF03D83,C9246B72
8FF03D84,C924865C
8FF03D85,C92481F1
8FF03D86,C9248659
8FF03D87,C9248626
8FF03D88,C9248760
8FF03D89,C924861A
8FF03D90,C9248776
8FF03D91,C9249468
8FF03D92,C9249466
8FF03D93,C9249473
8FF03D94,C9249411
8FF03D95,C92494A6
8FF03D96,C9246A72
8FF03D97,C92494A2
8FF03D98,C92485D8
8FF03D99,C92493E4
8FF03DA0,C9248757
8FF03DA1,C9248774
8FF03DA2,C92433B4
8FF03DA4,C924876B
8FF03DA5,C92487C5
8FF03DA6,C9248754
8FF03DA7,C9249484
8FF03DA8,C924892E
8FF03DA9,C9248930
8FF03DAA,C9248974
8FF03DAB,C9248976
8FF03DAC,C9248181
8FF04361,C924898B
8FF04362,C9248A06
8FF04363,C9247381
8FF04364,C92489FA
8FF04365,C924739C
8FF04366,C9247422
8FF04367,C9244FD7
8FF04368,C924747B
8FF04369,C92435C6
8FF04370,C9249410
8FF04371,C92493E0
8FF04372,C9246A80
8FF04373,C9246A50
8FF04374,C9246A77
8FF04375,C9246A78
8FF04376,C9246A8D
8FF04377,C9246A94
8FF04378,C9248205
8FF04379,C9244F31
8FF04380,C9248258
8FF04381,C9248216
8FF04382,C92493E6
8FF04383,C924A48B
8FF04384,C9248630
8FF04385,C9246AC9
8FF04386,C9247D34
8FF04387,C9248904
8FF04388,C92481E7
8FF04389,C9248229
8FF04390,C924820A
8FF04391,C92481F3
8FF04392,C924863E
8FF04393,C924865F
8FF04394,C92494A5
8FF04395,C9246A7F
8FF04396,C924875C
8FF04397,C92481E5
8FF04398,C9248743
8FF04399,C924874D
8FF043A0,C9248747
8FF043A1,C9249471
8FF043A2,C9248770
8FF043A3,C9249477
8FF043A4,C924472B
8FF043A5,C9249406
8FF043A6,C92493FF
8FF043A7,C92493E3
8FF043A8,C924875D
8FF043A9,C9249196
8FF043AA,C9243618
8FF043AB,C9248230
8FF043AD,C92487B3
8FF043AE,C9248767
8FF043AF,C92487F7
8FF043B0,C92487A2
8FF043B1,C924892B
8FF043B2,C9247C97
8FF043B3,C924891E
8FF043B4,C92488FF
8FF043B5,C9248929
8FF043B6,C924817D
8FF047E3,C9246B0A
8FF04809,C9247388
8FF04810,C92493D5
8FF04811,C9249416
8FF04812,C9246A47
8FF04813,C9246A58
8FF04814,C9246A67
8FF04815,C9246AB5
8FF04816,C9246AC2
8FF04817,C9246AA0
8FF04818,C9248211
8FF04819,C92474B0
8FF04820,C9248252
8FF04821,C9248222
8FF04822,C92481EC
8FF04823,C924820F
8FF04824,C924863A
8FF04825,C9247EC1
8FF04826,C9247498
8FF04827,C9246AD8
8FF04828,C924748E
8FF04829,C92493F3
8FF04830,C9248624
8FF04831,C9248634
8FF04832,C9248210
8FF04833,C9248638
8FF04834,C9248621
8FF04835,C924822F
8FF04836,C924861C
8FF04837,C9247C8F
8FF04838,C924824D
8FF04839,C9248766
8FF04840,C9247CAA
8FF04841,C924873E
8FF04842,C9246B07
8FF04843,C924864D
8FF04844,C924949C
8FF04845,C9246A6A
8FF04846,C924876A
8FF04847,C9249497
8FF04848,C9248749
8FF04849,C92481F8
8FF04850,C924948A
8FF04851,C9248239
8FF04852,C924940B
8FF04853,C92493FA
8FF04854,C9249400
8FF04855,C924874A
8FF04856,C9248769
8FF04857,C92487FC
8FF04858,C924895F
8FF04859,C924868E
8FF04860,C9248759
8FF04861,C9248753
8FF04862,C9248765
8FF04863,C9248755
8FF04864,C92488F3
8FF04865,C9248978
8FF04866,C9248911
8FF04867,C9248975
8FF04868,C9248979
8FF04869,C9248189
8FF04870,C9244AD7
8FF0488E,C9248A04
8FF0488F,C92489B3
8FF0489A,C92489C1
8FF0489B,C924739D
8FF0489C,C924735E
8FF0489D,C9244A10
8FF0489E,C924746F
8FF0489F,C92470FF
8FF04A02,C9242F9C
8FF04A03,C9249F2E
8FF04A04,C9245306
8FF04A05,C92482A4
8FF04A06,C92482D9
8FF04A07,C9245078
8FF04A08,C9245A9F
8FF04A09,C92467A0
8FF04A10,C9249F59
8FF04A11,C9249F4C
8FF04A12,C9249F3C
8FF04A13,C92451BB
8FF04A14,C92450CD
8FF04A15,C92490A0
8FF04A16,C9249089
8FF04A17,C924776B
8FF04A18,C9245191
8FF04A19,C9249924
8FF04A1A,C924827A
8FF04A1B,C92432D6
8FF04A1C,C9245393
8FF04A1D,C9242F9F
8FF04A1E,C9242FA3
8FF04A1F,C92498AF
8FF04A20,C92498F9
8FF04A21,C92498F4
8FF04A22,C92466E9
8FF04A23,C92456F6
8FF04A24,C924856D
8FF04A25,C9249E61
8FF04A26,C9249E5B
8FF04A27,C92483E4
8FF04A28,C9249FA7
8FF04A29,C9249F05
8FF04A2A,C9242F7E
8FF04A2B,C9247E6E
8FF04A2C,C9247DB0
8FF04A2D,C9242E0E
8FF04A2E,C9246C4A
8FF04A2F,C9246C5B
8FF04A30,C9243B85
8FF04A31,C9246C48
8FF04A32,C9246E83
8FF04A33,C92440A6
8FF04A34,C9246EC3
8FF04A35,C9246E38
8FF04A36,C9246E5E
8FF04A37,C92447FD
8FF04A38,C924850F
8FF04A39,C9247B78
8FF04A3A,C9246798
8FF04A3B,C92450D9
8FF04A3C,C9243C50
8FF04A3D,C92491AA
8FF04A3E,C924711B
8FF04A3F,C924711E
8FF04A40,C9248534
8FF04A41,C9248529
8FF04A42,C9245B26
8FF04A43,C924595F
8FF04A44,C9244819
8FF04A45,C92447C4
8FF04A46,C92447FA
8FF04A47,C9244290
8FF04A48,C9249819
8FF04A49,C9242F71
8FF04A4A,C92482B9
8FF04A4B,C92482BA
8FF04A4C,C924775A
8FF04A4D,C9247BFF
8FF04A4E,C9243B87
8FF04A4F,C9245760
8FF04A50,C9249830
8FF04A51,C9249826
8FF04A52,C924981F
8FF04A53,C92440B8
8FF04A54,C9244160
8FF04A55,C9246C4F
8FF04A56,C92482AE
8FF04A58,C92441D5
8FF04A59,C924678B
8FF04A5A,C9248281
8FF04A5B,C924829E
8FF04A5C,C92482B6
8FF04A5D,C9243248
8FF04A5E,C9249277
8FF04A5F,C92491AC
8FF04A60,C9246CB3
8FF04A61,C9245664
8FF04A62,C9245043
8FF04A64,C92450E2
8FF04A65,C9245039
8FF04A66,C9249F19
8FF04A67,C9245023
8FF04A68,C92442C4
8FF04A69,C92442A6
8FF04A6A,C9249F73
8FF04A6B,C9249FCE
8FF04A6C,C9249F7F
8FF04A6D,C924509B
8FF04A6E,C9249FB1
8FF04A6F,C924508B
8FF04A70,C9246E54
8FF04A71,C92442B6
8FF04A72,C9244123
8FF04A73,C9246EDB
8FF04A74,C9246E3C
8FF04A75,C9246EB9
8FF04A76,C9246EF3
8FF04A77,C9246E9A
8FF04A78,C92447A0
8FF04A79,C9245013
8FF04A7A,C9245062
8FF04A7B,C9245103
8FF04A7C,C92450FD
8FF04A7D,C924572F
8FF04A7E,C924577A
8FF04A7F,C9247BB0
8FF04A80,C92498CB
8FF04A81,C9247023
8FF04A82,C9246FD3
8FF04A83,C9246EAA
8FF04A84,C9246EAD
8FF04A85,C9244096
8FF04A86,C924413B
8FF04A87,C9246E8D
8FF04A88,C9249711
8FF04A89,C9244213
8FF04A8A,C9247B91
8FF04A8B,C9248538
8FF04A8C,C9242FC5
8FF04A8D,C9242FB8
8FF04A8E,C9245154
8FF04A8F,C9247A9E
8FF04A90,C92496F5
8FF04A91,C9246EEB
8FF04A9A,C92491AD
8FF04A9B,C9245345
8FF04A9C,C9249F3B
8FF04A9D,C9249F58
8FF04A9E,C9246C3C
8FF04A9F,C9246C7D
8FF04B03,C924978D
8FF04B04,C92440BC
8FF04B05,C92435FF
8FF04B06,C924839D
8FF04B07,C924937C
8FF04B08,C9243C71
8FF04B09,C9243E42
8FF04B10,C9244322
8FF04B11,C924513B
8FF04B13,C9248B53
8FF04B15,C9247A74
8FF04B17,C92482A7
8FF04B18,C92482B8
8FF04B19,C9242F74
8FF04B21,C9243959
8FF04B2E,C924977D
8FF04B2F,C924429E
8FF04B3A,C92497A8
8FF04B3B,C92497AD
8FF04B3C,C92497BD
8FF04B3D,C92497AF
8FF04B3E,C92496E3
8FF04B3F,C9246E5F
8FF04B4A,C92446D8
8FF04B4B,C924470E
8FF04B4C,C9246E43
8FF04B4D,C9243610
8FF04B4E,C9247D06
8FF04B4F,C9248291
8FF04B5A,C92435FB
8FF04B5B,C9247B31
8FF04B5C,C9249E1F
8FF04B5D,C9249DF8
8FF04B5E,C9244863
8FF04B5F,C9249DFC
8FF04B6A,C924A0A1
8FF04B6B,C92435E9
8FF04B6C,C9249D02
8FF04B6D,C9249D19
8FF04B6E,C9249790
8FF04B6F,C9244353
8FF04B7A,C924938E
8FF04B7B,C92497AC
8FF04B7C,C9245858
8FF04B7D,C9249388
8FF04B7E,C9243C8E
8FF04B7F,C9243C63
8FF04B8A,C9245B9E
8FF04B8B,C9243C9D
8FF04B8C,C92491EA
8FF04B8D,C9246F7B
8FF04B8E,C9249FC2
8FF04B8F,C92436D7
8FF04B9A,C9243E6C
8FF04B9B,C92436CC
8FF04B9C,C924432F
8FF04B9D,C924435D
8FF04B9E,C9244034
8FF04B9F,C9244032
8FF04D12,C92440A9
8FF04D13,C92440B5
8FF04D14,C92440BF
8FF04D15,C92442A1
8FF04D16,C92440AC
8FF04D17,C924410E
8FF04D18,C9246E62
8FF04D1D,C9248272
8FF04D1E,C9246764
8FF04D1F,C9246769
8FF04D2A,C9248586
8FF04D2B,C9245027
8FF04D2C,C9248562
8FF04D2D,C924A096
8FF04D2E,C9243751
8FF04D2F,C92467AA
8FF04D3A,C924856E
8FF04D3B,C924857C
8FF04D3C,C9245674
8FF04D3D,C9249F09
8FF04D3F,C9249EA5
8FF04D4A,C92483D6
8FF04D4B,C92456B8
8FF04D4C,C92491E0
8FF04D4D,C9243701
8FF04D4E,C92456F1
8FF04D4F,C92483DE
8FF04D5A,C9249E97
8FF04D5B,C9249EAB
8FF04D5C,C9249ECE
8FF04D5D,C9249F83
8FF04D5F,C9248576
8FF04D6A,C9248540
8FF04D6B,C9249ED8
8FF04D6C,C9249F6E
8FF04D6D,C9249EE0
8FF04D6E,C9248368
8FF04D6F,C9249E6A
8FF04D74,C92466B8
8FF04D7A,C9249E70
8FF04D7F,C9249E5F
8FF04D86,C9249F66
8FF04D8A,C92483D9
8FF04D8B,C9249EA9
8FF04D8C,C92467AE
8FF04D8D,C9247885
8FF04D8E,C9247869
8FF04D8F,C92478A5
8FF04D92,C9249901
8FF04D93,C92498E2
8FF04D9A,C92447A7
8FF04D9B,C92447B8
8FF04D9C,C92447CE
8FF04D9D,C92447AD
8FF04D9E,C92447A9
8FF04D9F,C92436FB
8FF04DA2,C92491D1
8FF04DA4,C9249F88
8FF04DA5,C9242E87
8FF04DA6,C9246C41
8FF04DA7,C9249F3F
8FF04DA8,C9246C43
8FF04DA9,C9248E0A
8FF04DAA,C924360B
8FF04DAB,C9243C5C
8FF04DAC,C9245367
8FF04DAD,C92453B8
8FF04DAE,C9247760
8FF04DAF,C9242FB1
8FF04DB0,C92450C7
8FF04DB1,C9245730
8FF04DB2,C9245728
8FF04DB3,C9245746
8FF04DB4,C92450C1
8FF04DB5,C9248275
8FF04DB6,C9249278
8FF04DB7,C92491AB
8FF04DB8,C92491E9
8FF04DB9,C9248286
8FF04DBA,C92431AC
8FF04DBB,C92482D3
8FF04DBC,C9249F95
8FF04DBD,C9249F8B
8FF04DBE,C9249F61
8FF04DBF,C9249F8A
8FF04DC0,C9249FD5
8FF04DC1,C9249FD0
8FF04DC2,C92450C3
8FF04DC3,C9245109
8FF04DC4,C9249082
8FF04DC5,C9245064
8FF04DC6,C9245089
8FF04DC7,C924507C
8FF04DC8,C9245739
8FF04DC9,C9247BB6
8FF04DCA,C9245751
8FF04DCB,C924575F
8FF04DCC,C9247B9D
8FF04DCD,C9245780
8FF04DCE,C9247BB1
8FF04DCF,C9242E1E
8FF04DD0,C9242E0F
8FF04DD1,C9242E19
8FF04DD2,C9247A56
8FF04DD3,C9248B59
8FF04DD4,C9246799
8FF04DD5,C9246C54
8FF04DD6,C9249F1B
8FF04DD7,C9249F29
8FF04DD8,C9249F36
8FF04DD9,C9249F23
8FF04DDA,C9246C49
8FF04DDB,C92478C0
8FF04DDC,C9249F30
8FF04DDD,C9246C6B
8FF04DDE,C9249F1D
8FF04DDF,C92490C4
8FF04DE0,C92450BD
8FF04DE1,C92490AC
8FF04DE2,C92451B4
8FF04DE3,C9245186
8FF04DE4,C924670B
8FF04DE5,C9246705
8FF04DE6,C9243180
8FF04DE7,C92498EB
8FF04DE8,C92498F6
8FF04DE9,C9247B0F
8FF04DEA,C924316F
8FF04DEB,C9249EED
8FF04DEC,C924331E
8FF04DED,C9245600
8FF04DEE,C9247C2E
8FF04DEF,C92456EC
8FF04DF0,C9249FB2
8FF04DF1,C9245A9A
8FF04DF2,C92456F9
8FF04DF3,C9246E7D
8FF04DF4,C9245A94
8FF04DF5,C9246ECF
8FF04DF6,C9246E3F
8FF04DF7,C9249EE9
8FF04DF8,C9246E70
8FF04DF9,C9246E65
8FF04DFA,C9248527
8FF04DFB,C924A090
8FF04DFC,C924853A
8FF04DFD,C9245B3A
8FF04DFE,C9245966
8FF04DFF,C9243031
8FF04E00,C9244826
8FF04E01,C9244291
8FF04E02,C9249848
8FF04E03,C9244198
8FF04E04,C9248596
8FF04E06,C9245654
8FF04E07,C9246EC0
8FF04E08,C9243985
8FF04E0A,C92447EF
8FF04E0B,C924481D
8FF04E0C,C924571E
8FF04E0D,C92496D6
8FF04E0E,C9244811
8FF04E0F,C9244809
8FF04E1A,C92440CA
8FF04E1B,C92440C4
8FF04E1C,C9244045
8FF04E1D,C92442CC
8FF04E1E,C92440BB
8FF04E1F,C92440BD
8FF04E2A,C924981E
8FF04E2B,C924983D
8FF04E2C,C9242F99
8FF04E2D,C9242F93
8FF04E2E,C924982B
8FF04E2F,C9249849
8FF04E3A,C924419D
8FF04E3B,C9246793
8FF04E3C,C9249110
8FF04E3D,C9246C53
8FF04E3E,C92456C5
8FF04E3F,C9247AF6
8FF04E4A,C924858A
8FF04E4B,C92498E7
8FF04E4C,C9244800
8FF04E4D,C9249E51
8FF04E4E,C92442A2
8FF04E4F,C92442A9
8FF04E5A,C92442C8
8FF04E5B,C92442A5
8FF04E5C,C9246EED
8FF04E5D,C9246EB3
8FF04E5E,C9246EE9
8FF04E5F,C9246EAE
8FF04E6A,C92447A8
8FF04E6B,C9246EE1
8FF04E6C,C9249858
8FF04E6D,C924982C
8FF04E6F,C9246FC8
8FF04E7A,C9246EBA
8FF04E7B,C9246E7E
8FF04E7C,C92440BA
8FF04E7D,C9244195
8FF04E7E,C92440B6
8FF04E7F,C9249722
8FF04E8A,C924970C
8FF04E8B,C924971E
8FF04E8C,C92442B1
8FF04E8D,C9246EDF
8FF04E8E,C924972A
8FF04EC3,C9249E1E
8FF04EC5,C924485F
8FF04EC7,C92497B8
8FF04EC8,C9249241
8FF04EC9,C924979B
8FF04ECA,C924783C
8FF04ECB,C92497B4
8FF04ECC,C924977B
8FF04ECD,C9245798
8FF04ECE,C9246E92
8FF04ECF,C9246E63
8FF04ED0,C92447AE
8FF04ED1,C924409B
8FF04ED2,C924476F
8FF04ED3,C92442C3
8FF04ED4,C92446E9
8FF04ED5,C92446E7
8FF04ED6,C9247CD7
8FF04ED7,C9243625
8FF04ED8,C92435EE
8FF04ED9,C9247CF9
8FF04EDA,C9244708
8FF04EDB,C9247B56
8FF04EDC,C92435EF
8FF04EDD,C9244340
8FF04EDE,C9248285
8FF04EDF,C9249E01
8FF04EE0,C9249E19
8FF04EE1,C9249E13
8FF04EE2,C9248730
8FF04EE3,C9247B1C
8FF04EE4,C9244345
8FF04EE5,C924872E
8FF04EE6,C9249D06
8FF04EE7,C92482C0
8FF04EE8,C9244362
8FF04EE9,C9249784
8FF04EEA,C92497A7
8FF04EEB,C924978F
8FF04EEC,C9243C68
8FF04EED,C9245883
8FF04EEE,C9245871
8FF04EEF,C9243C74
8FF04EF0,C9249CE8
8FF04EF1,C9243C9A
8FF04EF2,C9245BAF
8FF04EF3,C924375F
8FF04EF4,C924370F
8FF04EF5,C924523F
8FF04EF6,C9249D08
8FF04EF7,C92432EB
8FF04EF8,C924A07D
8FF04EF9,C9246CFF
8FF04EFA,C9245840
8FF04EFB,C9243E1D
8FF04EFC,C9245230
8FF04EFD,C9245359
8FF04EFE,C9244359
8FF04EFF,C9243167
8FF04F00,C924316D
8FF04F01,C9248B4D
8FF04F0A,C9244323
8FF04F0B,C924434D
8FF04F0C,C9243193
8FF04F0D,C9249EB1
8FF04F0F,C9248B6B
8FF04F1A,C9247A7A
8FF04F1C,C92486F2
8FF04F1D,C9248288
8FF04F1E,C9247A6F
8FF04F1F,C9248276
8FF04F2A,C9242F84
