(['D:\\__8888__Project\\person\\python_exercise\\asn_to_xml.py'],
 ['D:\\__8888__Project\\person\\python_exercise'],
 ['codecs'],
 ['C:\\Users\\wujin\\AppData\\Local\\Programs\\Python\\Python310\\lib\\site-packages\\_pyinstaller_hooks_contrib\\hooks\\stdhooks',
  'C:\\Users\\wujin\\AppData\\Local\\Programs\\Python\\Python310\\lib\\site-packages\\_pyinstaller_hooks_contrib\\hooks\\stdhooks\\__pycache__',
  'C:\\Users\\wujin\\AppData\\Local\\Programs\\Python\\Python310\\lib\\site-packages\\_pyinstaller_hooks_contrib\\hooks\\rthooks',
  'C:\\Users\\wujin\\AppData\\Local\\Programs\\Python\\Python310\\lib\\site-packages\\_pyinstaller_hooks_contrib\\hooks\\rthooks\\__pycache__',
  'C:\\Users\\wujin\\AppData\\Local\\Programs\\Python\\Python310\\lib\\site-packages\\_pyinstaller_hooks_contrib\\hooks'],
 {},
 [],
 [],
 False,
 False,
 False,
 {},
 '3.10.7 (tags/v3.10.7:6cc6b13, Sep  5 2022, 14:08:36) [MSC v.1933 64 bit '
 '(AMD64)]',
 [('pyi_rth_inspect',
   'C:\\Users\\wujin\\AppData\\Local\\Programs\\Python\\Python310\\Lib\\site-packages\\PyInstaller\\hooks\\rthooks\\pyi_rth_inspect.py',
   'PYSOURCE'),
  ('pyi_rth_subprocess',
   'C:\\Users\\wujin\\AppData\\Local\\Programs\\Python\\Python310\\Lib\\site-packages\\PyInstaller\\hooks\\rthooks\\pyi_rth_subprocess.py',
   'PYSOURCE'),
  ('asn_to_xml',
   'D:\\__8888__Project\\person\\python_exercise\\asn_to_xml.py',
   'PYSOURCE')],
 [('subprocess',
   'C:\\Users\\wujin\\AppData\\Local\\Programs\\Python\\Python310\\lib\\subprocess.py',
   'PYMODULE'),
  ('selectors',
   'C:\\Users\\wujin\\AppData\\Local\\Programs\\Python\\Python310\\lib\\selectors.py',
   'PYMODULE'),
  ('contextlib',
   'C:\\Users\\wujin\\AppData\\Local\\Programs\\Python\\Python310\\lib\\contextlib.py',
   'PYMODULE'),
  ('threading',
   'C:\\Users\\wujin\\AppData\\Local\\Programs\\Python\\Python310\\lib\\threading.py',
   'PYMODULE'),
  ('_threading_local',
   'C:\\Users\\wujin\\AppData\\Local\\Programs\\Python\\Python310\\lib\\_threading_local.py',
   'PYMODULE'),
  ('signal',
   'C:\\Users\\wujin\\AppData\\Local\\Programs\\Python\\Python310\\lib\\signal.py',
   'PYMODULE'),
  ('inspect',
   'C:\\Users\\wujin\\AppData\\Local\\Programs\\Python\\Python310\\lib\\inspect.py',
   'PYMODULE'),
  ('importlib',
   'C:\\Users\\wujin\\AppData\\Local\\Programs\\Python\\Python310\\lib\\importlib\\__init__.py',
   'PYMODULE'),
  ('importlib.abc',
   'C:\\Users\\wujin\\AppData\\Local\\Programs\\Python\\Python310\\lib\\importlib\\abc.py',
   'PYMODULE'),
  ('typing',
   'C:\\Users\\wujin\\AppData\\Local\\Programs\\Python\\Python310\\lib\\typing.py',
   'PYMODULE'),
  ('importlib._abc',
   'C:\\Users\\wujin\\AppData\\Local\\Programs\\Python\\Python310\\lib\\importlib\\_abc.py',
   'PYMODULE'),
  ('importlib._bootstrap_external',
   'C:\\Users\\wujin\\AppData\\Local\\Programs\\Python\\Python310\\lib\\importlib\\_bootstrap_external.py',
   'PYMODULE'),
  ('importlib.metadata',
   'C:\\Users\\wujin\\AppData\\Local\\Programs\\Python\\Python310\\lib\\importlib\\metadata\\__init__.py',
   'PYMODULE'),
  ('importlib.metadata._itertools',
   'C:\\Users\\wujin\\AppData\\Local\\Programs\\Python\\Python310\\lib\\importlib\\metadata\\_itertools.py',
   'PYMODULE'),
  ('importlib.metadata._functools',
   'C:\\Users\\wujin\\AppData\\Local\\Programs\\Python\\Python310\\lib\\importlib\\metadata\\_functools.py',
   'PYMODULE'),
  ('importlib.metadata._collections',
   'C:\\Users\\wujin\\AppData\\Local\\Programs\\Python\\Python310\\lib\\importlib\\metadata\\_collections.py',
   'PYMODULE'),
  ('importlib.metadata._meta',
   'C:\\Users\\wujin\\AppData\\Local\\Programs\\Python\\Python310\\lib\\importlib\\metadata\\_meta.py',
   'PYMODULE'),
  ('importlib.metadata._adapters',
   'C:\\Users\\wujin\\AppData\\Local\\Programs\\Python\\Python310\\lib\\importlib\\metadata\\_adapters.py',
   'PYMODULE'),
  ('importlib.metadata._text',
   'C:\\Users\\wujin\\AppData\\Local\\Programs\\Python\\Python310\\lib\\importlib\\metadata\\_text.py',
   'PYMODULE'),
  ('email.message',
   'C:\\Users\\wujin\\AppData\\Local\\Programs\\Python\\Python310\\lib\\email\\message.py',
   'PYMODULE'),
  ('email.policy',
   'C:\\Users\\wujin\\AppData\\Local\\Programs\\Python\\Python310\\lib\\email\\policy.py',
   'PYMODULE'),
  ('email.contentmanager',
   'C:\\Users\\wujin\\AppData\\Local\\Programs\\Python\\Python310\\lib\\email\\contentmanager.py',
   'PYMODULE'),
  ('email.quoprimime',
   'C:\\Users\\wujin\\AppData\\Local\\Programs\\Python\\Python310\\lib\\email\\quoprimime.py',
   'PYMODULE'),
  ('string',
   'C:\\Users\\wujin\\AppData\\Local\\Programs\\Python\\Python310\\lib\\string.py',
   'PYMODULE'),
  ('email.headerregistry',
   'C:\\Users\\wujin\\AppData\\Local\\Programs\\Python\\Python310\\lib\\email\\headerregistry.py',
   'PYMODULE'),
  ('email._header_value_parser',
   'C:\\Users\\wujin\\AppData\\Local\\Programs\\Python\\Python310\\lib\\email\\_header_value_parser.py',
   'PYMODULE'),
  ('email.iterators',
   'C:\\Users\\wujin\\AppData\\Local\\Programs\\Python\\Python310\\lib\\email\\iterators.py',
   'PYMODULE'),
  ('email.generator',
   'C:\\Users\\wujin\\AppData\\Local\\Programs\\Python\\Python310\\lib\\email\\generator.py',
   'PYMODULE'),
  ('copy',
   'C:\\Users\\wujin\\AppData\\Local\\Programs\\Python\\Python310\\lib\\copy.py',
   'PYMODULE'),
  ('random',
   'C:\\Users\\wujin\\AppData\\Local\\Programs\\Python\\Python310\\lib\\random.py',
   'PYMODULE'),
  ('statistics',
   'C:\\Users\\wujin\\AppData\\Local\\Programs\\Python\\Python310\\lib\\statistics.py',
   'PYMODULE'),
  ('decimal',
   'C:\\Users\\wujin\\AppData\\Local\\Programs\\Python\\Python310\\lib\\decimal.py',
   'PYMODULE'),
  ('_pydecimal',
   'C:\\Users\\wujin\\AppData\\Local\\Programs\\Python\\Python310\\lib\\_pydecimal.py',
   'PYMODULE'),
  ('contextvars',
   'C:\\Users\\wujin\\AppData\\Local\\Programs\\Python\\Python310\\lib\\contextvars.py',
   'PYMODULE'),
  ('fractions',
   'C:\\Users\\wujin\\AppData\\Local\\Programs\\Python\\Python310\\lib\\fractions.py',
   'PYMODULE'),
  ('numbers',
   'C:\\Users\\wujin\\AppData\\Local\\Programs\\Python\\Python310\\lib\\numbers.py',
   'PYMODULE'),
  ('hashlib',
   'C:\\Users\\wujin\\AppData\\Local\\Programs\\Python\\Python310\\lib\\hashlib.py',
   'PYMODULE'),
  ('logging',
   'C:\\Users\\wujin\\AppData\\Local\\Programs\\Python\\Python310\\lib\\logging\\__init__.py',
   'PYMODULE'),
  ('pickle',
   'C:\\Users\\wujin\\AppData\\Local\\Programs\\Python\\Python310\\lib\\pickle.py',
   'PYMODULE'),
  ('pprint',
   'C:\\Users\\wujin\\AppData\\Local\\Programs\\Python\\Python310\\lib\\pprint.py',
   'PYMODULE'),
  ('dataclasses',
   'C:\\Users\\wujin\\AppData\\Local\\Programs\\Python\\Python310\\lib\\dataclasses.py',
   'PYMODULE'),
  ('_compat_pickle',
   'C:\\Users\\wujin\\AppData\\Local\\Programs\\Python\\Python310\\lib\\_compat_pickle.py',
   'PYMODULE'),
  ('struct',
   'C:\\Users\\wujin\\AppData\\Local\\Programs\\Python\\Python310\\lib\\struct.py',
   'PYMODULE'),
  ('bisect',
   'C:\\Users\\wujin\\AppData\\Local\\Programs\\Python\\Python310\\lib\\bisect.py',
   'PYMODULE'),
  ('email._encoded_words',
   'C:\\Users\\wujin\\AppData\\Local\\Programs\\Python\\Python310\\lib\\email\\_encoded_words.py',
   'PYMODULE'),
  ('base64',
   'C:\\Users\\wujin\\AppData\\Local\\Programs\\Python\\Python310\\lib\\base64.py',
   'PYMODULE'),
  ('getopt',
   'C:\\Users\\wujin\\AppData\\Local\\Programs\\Python\\Python310\\lib\\getopt.py',
   'PYMODULE'),
  ('gettext',
   'C:\\Users\\wujin\\AppData\\Local\\Programs\\Python\\Python310\\lib\\gettext.py',
   'PYMODULE'),
  ('email.charset',
   'C:\\Users\\wujin\\AppData\\Local\\Programs\\Python\\Python310\\lib\\email\\charset.py',
   'PYMODULE'),
  ('email.encoders',
   'C:\\Users\\wujin\\AppData\\Local\\Programs\\Python\\Python310\\lib\\email\\encoders.py',
   'PYMODULE'),
  ('email.base64mime',
   'C:\\Users\\wujin\\AppData\\Local\\Programs\\Python\\Python310\\lib\\email\\base64mime.py',
   'PYMODULE'),
  ('email._policybase',
   'C:\\Users\\wujin\\AppData\\Local\\Programs\\Python\\Python310\\lib\\email\\_policybase.py',
   'PYMODULE'),
  ('email.header',
   'C:\\Users\\wujin\\AppData\\Local\\Programs\\Python\\Python310\\lib\\email\\header.py',
   'PYMODULE'),
  ('email.errors',
   'C:\\Users\\wujin\\AppData\\Local\\Programs\\Python\\Python310\\lib\\email\\errors.py',
   'PYMODULE'),
  ('email.utils',
   'C:\\Users\\wujin\\AppData\\Local\\Programs\\Python\\Python310\\lib\\email\\utils.py',
   'PYMODULE'),
  ('email._parseaddr',
   'C:\\Users\\wujin\\AppData\\Local\\Programs\\Python\\Python310\\lib\\email\\_parseaddr.py',
   'PYMODULE'),
  ('calendar',
   'C:\\Users\\wujin\\AppData\\Local\\Programs\\Python\\Python310\\lib\\calendar.py',
   'PYMODULE'),
  ('datetime',
   'C:\\Users\\wujin\\AppData\\Local\\Programs\\Python\\Python310\\lib\\datetime.py',
   'PYMODULE'),
  ('_strptime',
   'C:\\Users\\wujin\\AppData\\Local\\Programs\\Python\\Python310\\lib\\_strptime.py',
   'PYMODULE'),
  ('socket',
   'C:\\Users\\wujin\\AppData\\Local\\Programs\\Python\\Python310\\lib\\socket.py',
   'PYMODULE'),
  ('quopri',
   'C:\\Users\\wujin\\AppData\\Local\\Programs\\Python\\Python310\\lib\\quopri.py',
   'PYMODULE'),
  ('uu',
   'C:\\Users\\wujin\\AppData\\Local\\Programs\\Python\\Python310\\lib\\uu.py',
   'PYMODULE'),
  ('optparse',
   'C:\\Users\\wujin\\AppData\\Local\\Programs\\Python\\Python310\\lib\\optparse.py',
   'PYMODULE'),
  ('textwrap',
   'C:\\Users\\wujin\\AppData\\Local\\Programs\\Python\\Python310\\lib\\textwrap.py',
   'PYMODULE'),
  ('zipfile',
   'C:\\Users\\wujin\\AppData\\Local\\Programs\\Python\\Python310\\lib\\zipfile.py',
   'PYMODULE'),
  ('py_compile',
   'C:\\Users\\wujin\\AppData\\Local\\Programs\\Python\\Python310\\lib\\py_compile.py',
   'PYMODULE'),
  ('lzma',
   'C:\\Users\\wujin\\AppData\\Local\\Programs\\Python\\Python310\\lib\\lzma.py',
   'PYMODULE'),
  ('_compression',
   'C:\\Users\\wujin\\AppData\\Local\\Programs\\Python\\Python310\\lib\\_compression.py',
   'PYMODULE'),
  ('bz2',
   'C:\\Users\\wujin\\AppData\\Local\\Programs\\Python\\Python310\\lib\\bz2.py',
   'PYMODULE'),
  ('shutil',
   'C:\\Users\\wujin\\AppData\\Local\\Programs\\Python\\Python310\\lib\\shutil.py',
   'PYMODULE'),
  ('tarfile',
   'C:\\Users\\wujin\\AppData\\Local\\Programs\\Python\\Python310\\lib\\tarfile.py',
   'PYMODULE'),
  ('gzip',
   'C:\\Users\\wujin\\AppData\\Local\\Programs\\Python\\Python310\\lib\\gzip.py',
   'PYMODULE'),
  ('importlib.util',
   'C:\\Users\\wujin\\AppData\\Local\\Programs\\Python\\Python310\\lib\\importlib\\util.py',
   'PYMODULE'),
  ('email',
   'C:\\Users\\wujin\\AppData\\Local\\Programs\\Python\\Python310\\lib\\email\\__init__.py',
   'PYMODULE'),
  ('email.parser',
   'C:\\Users\\wujin\\AppData\\Local\\Programs\\Python\\Python310\\lib\\email\\parser.py',
   'PYMODULE'),
  ('email.feedparser',
   'C:\\Users\\wujin\\AppData\\Local\\Programs\\Python\\Python310\\lib\\email\\feedparser.py',
   'PYMODULE'),
  ('csv',
   'C:\\Users\\wujin\\AppData\\Local\\Programs\\Python\\Python310\\lib\\csv.py',
   'PYMODULE'),
  ('importlib.readers',
   'C:\\Users\\wujin\\AppData\\Local\\Programs\\Python\\Python310\\lib\\importlib\\readers.py',
   'PYMODULE'),
  ('importlib._bootstrap',
   'C:\\Users\\wujin\\AppData\\Local\\Programs\\Python\\Python310\\lib\\importlib\\_bootstrap.py',
   'PYMODULE'),
  ('argparse',
   'C:\\Users\\wujin\\AppData\\Local\\Programs\\Python\\Python310\\lib\\argparse.py',
   'PYMODULE'),
  ('importlib.machinery',
   'C:\\Users\\wujin\\AppData\\Local\\Programs\\Python\\Python310\\lib\\importlib\\machinery.py',
   'PYMODULE'),
  ('dis',
   'C:\\Users\\wujin\\AppData\\Local\\Programs\\Python\\Python310\\lib\\dis.py',
   'PYMODULE'),
  ('opcode',
   'C:\\Users\\wujin\\AppData\\Local\\Programs\\Python\\Python310\\lib\\opcode.py',
   'PYMODULE'),
  ('ast',
   'C:\\Users\\wujin\\AppData\\Local\\Programs\\Python\\Python310\\lib\\ast.py',
   'PYMODULE'),
  ('tempfile',
   'C:\\Users\\wujin\\AppData\\Local\\Programs\\Python\\Python310\\lib\\tempfile.py',
   'PYMODULE'),
  ('getpass',
   'C:\\Users\\wujin\\AppData\\Local\\Programs\\Python\\Python310\\lib\\getpass.py',
   'PYMODULE'),
  ('nturl2path',
   'C:\\Users\\wujin\\AppData\\Local\\Programs\\Python\\Python310\\lib\\nturl2path.py',
   'PYMODULE'),
  ('ftplib',
   'C:\\Users\\wujin\\AppData\\Local\\Programs\\Python\\Python310\\lib\\ftplib.py',
   'PYMODULE'),
  ('netrc',
   'C:\\Users\\wujin\\AppData\\Local\\Programs\\Python\\Python310\\lib\\netrc.py',
   'PYMODULE'),
  ('shlex',
   'C:\\Users\\wujin\\AppData\\Local\\Programs\\Python\\Python310\\lib\\shlex.py',
   'PYMODULE'),
  ('mimetypes',
   'C:\\Users\\wujin\\AppData\\Local\\Programs\\Python\\Python310\\lib\\mimetypes.py',
   'PYMODULE'),
  ('http.cookiejar',
   'C:\\Users\\wujin\\AppData\\Local\\Programs\\Python\\Python310\\lib\\http\\cookiejar.py',
   'PYMODULE'),
  ('http',
   'C:\\Users\\wujin\\AppData\\Local\\Programs\\Python\\Python310\\lib\\http\\__init__.py',
   'PYMODULE'),
  ('ssl',
   'C:\\Users\\wujin\\AppData\\Local\\Programs\\Python\\Python310\\lib\\ssl.py',
   'PYMODULE'),
  ('http.client',
   'C:\\Users\\wujin\\AppData\\Local\\Programs\\Python\\Python310\\lib\\http\\client.py',
   'PYMODULE'),
  ('_py_abc',
   'C:\\Users\\wujin\\AppData\\Local\\Programs\\Python\\Python310\\lib\\_py_abc.py',
   'PYMODULE'),
  ('tracemalloc',
   'C:\\Users\\wujin\\AppData\\Local\\Programs\\Python\\Python310\\lib\\tracemalloc.py',
   'PYMODULE'),
  ('stringprep',
   'C:\\Users\\wujin\\AppData\\Local\\Programs\\Python\\Python310\\lib\\stringprep.py',
   'PYMODULE'),
  ('xml.etree.cElementTree',
   'C:\\Users\\wujin\\AppData\\Local\\Programs\\Python\\Python310\\lib\\xml\\etree\\cElementTree.py',
   'PYMODULE'),
  ('xml.etree.ElementTree',
   'C:\\Users\\wujin\\AppData\\Local\\Programs\\Python\\Python310\\lib\\xml\\etree\\ElementTree.py',
   'PYMODULE'),
  ('xml.etree.ElementInclude',
   'C:\\Users\\wujin\\AppData\\Local\\Programs\\Python\\Python310\\lib\\xml\\etree\\ElementInclude.py',
   'PYMODULE'),
  ('xml.parsers.expat',
   'C:\\Users\\wujin\\AppData\\Local\\Programs\\Python\\Python310\\lib\\xml\\parsers\\expat.py',
   'PYMODULE'),
  ('xml.parsers',
   'C:\\Users\\wujin\\AppData\\Local\\Programs\\Python\\Python310\\lib\\xml\\parsers\\__init__.py',
   'PYMODULE'),
  ('xml',
   'C:\\Users\\wujin\\AppData\\Local\\Programs\\Python\\Python310\\lib\\xml\\__init__.py',
   'PYMODULE'),
  ('xml.sax.expatreader',
   'C:\\Users\\wujin\\AppData\\Local\\Programs\\Python\\Python310\\lib\\xml\\sax\\expatreader.py',
   'PYMODULE'),
  ('xml.sax.saxutils',
   'C:\\Users\\wujin\\AppData\\Local\\Programs\\Python\\Python310\\lib\\xml\\sax\\saxutils.py',
   'PYMODULE'),
  ('xml.sax',
   'C:\\Users\\wujin\\AppData\\Local\\Programs\\Python\\Python310\\lib\\xml\\sax\\__init__.py',
   'PYMODULE'),
  ('xml.sax.handler',
   'C:\\Users\\wujin\\AppData\\Local\\Programs\\Python\\Python310\\lib\\xml\\sax\\handler.py',
   'PYMODULE'),
  ('xml.sax._exceptions',
   'C:\\Users\\wujin\\AppData\\Local\\Programs\\Python\\Python310\\lib\\xml\\sax\\_exceptions.py',
   'PYMODULE'),
  ('xml.sax.xmlreader',
   'C:\\Users\\wujin\\AppData\\Local\\Programs\\Python\\Python310\\lib\\xml\\sax\\xmlreader.py',
   'PYMODULE'),
  ('xml.etree.ElementPath',
   'C:\\Users\\wujin\\AppData\\Local\\Programs\\Python\\Python310\\lib\\xml\\etree\\ElementPath.py',
   'PYMODULE'),
  ('xml.etree',
   'C:\\Users\\wujin\\AppData\\Local\\Programs\\Python\\Python310\\lib\\xml\\etree\\__init__.py',
   'PYMODULE'),
  ('xml.dom.minidom',
   'C:\\Users\\wujin\\AppData\\Local\\Programs\\Python\\Python310\\lib\\xml\\dom\\minidom.py',
   'PYMODULE'),
  ('xml.dom.pulldom',
   'C:\\Users\\wujin\\AppData\\Local\\Programs\\Python\\Python310\\lib\\xml\\dom\\pulldom.py',
   'PYMODULE'),
  ('xml.dom.expatbuilder',
   'C:\\Users\\wujin\\AppData\\Local\\Programs\\Python\\Python310\\lib\\xml\\dom\\expatbuilder.py',
   'PYMODULE'),
  ('xml.dom.NodeFilter',
   'C:\\Users\\wujin\\AppData\\Local\\Programs\\Python\\Python310\\lib\\xml\\dom\\NodeFilter.py',
   'PYMODULE'),
  ('xml.dom.xmlbuilder',
   'C:\\Users\\wujin\\AppData\\Local\\Programs\\Python\\Python310\\lib\\xml\\dom\\xmlbuilder.py',
   'PYMODULE'),
  ('xml.dom.minicompat',
   'C:\\Users\\wujin\\AppData\\Local\\Programs\\Python\\Python310\\lib\\xml\\dom\\minicompat.py',
   'PYMODULE'),
  ('xml.dom.domreg',
   'C:\\Users\\wujin\\AppData\\Local\\Programs\\Python\\Python310\\lib\\xml\\dom\\domreg.py',
   'PYMODULE'),
  ('xml.dom',
   'C:\\Users\\wujin\\AppData\\Local\\Programs\\Python\\Python310\\lib\\xml\\dom\\__init__.py',
   'PYMODULE')],
 [('api-ms-win-crt-heap-l1-1-0.dll',
   'C:\\Program Files\\TortoiseGit\\bin\\api-ms-win-crt-heap-l1-1-0.dll',
   'BINARY'),
  ('python310.dll',
   'C:\\Users\\wujin\\AppData\\Local\\Programs\\Python\\Python310\\python310.dll',
   'BINARY'),
  ('api-ms-win-crt-stdio-l1-1-0.dll',
   'C:\\Program Files\\TortoiseGit\\bin\\api-ms-win-crt-stdio-l1-1-0.dll',
   'BINARY'),
  ('api-ms-win-crt-math-l1-1-0.dll',
   'C:\\Program Files\\TortoiseGit\\bin\\api-ms-win-crt-math-l1-1-0.dll',
   'BINARY'),
  ('VCRUNTIME140.dll',
   'C:\\Users\\wujin\\AppData\\Local\\Programs\\Python\\Python310\\VCRUNTIME140.dll',
   'BINARY'),
  ('api-ms-win-crt-runtime-l1-1-0.dll',
   'C:\\Program Files\\TortoiseGit\\bin\\api-ms-win-crt-runtime-l1-1-0.dll',
   'BINARY'),
  ('api-ms-win-crt-locale-l1-1-0.dll',
   'C:\\Program Files\\TortoiseGit\\bin\\api-ms-win-crt-locale-l1-1-0.dll',
   'BINARY'),
  ('ucrtbase.dll',
   'C:\\Program Files\\TortoiseGit\\bin\\ucrtbase.dll',
   'BINARY'),
  ('api-ms-win-crt-string-l1-1-0.dll',
   'C:\\Program Files\\TortoiseGit\\bin\\api-ms-win-crt-string-l1-1-0.dll',
   'BINARY'),
  ('api-ms-win-crt-process-l1-1-0.dll',
   'C:\\Program Files\\TortoiseGit\\bin\\api-ms-win-crt-process-l1-1-0.dll',
   'BINARY'),
  ('api-ms-win-crt-convert-l1-1-0.dll',
   'C:\\Program Files\\TortoiseGit\\bin\\api-ms-win-crt-convert-l1-1-0.dll',
   'BINARY'),
  ('api-ms-win-crt-time-l1-1-0.dll',
   'C:\\Program Files\\TortoiseGit\\bin\\api-ms-win-crt-time-l1-1-0.dll',
   'BINARY'),
  ('api-ms-win-crt-filesystem-l1-1-0.dll',
   'C:\\Program Files\\TortoiseGit\\bin\\api-ms-win-crt-filesystem-l1-1-0.dll',
   'BINARY'),
  ('api-ms-win-crt-conio-l1-1-0.dll',
   'C:\\Program Files\\TortoiseGit\\bin\\api-ms-win-crt-conio-l1-1-0.dll',
   'BINARY'),
  ('api-ms-win-crt-environment-l1-1-0.dll',
   'C:\\Program Files\\TortoiseGit\\bin\\api-ms-win-crt-environment-l1-1-0.dll',
   'BINARY'),
  ('api-ms-win-core-processthreads-l1-1-0.dll',
   'C:\\Program '
   'Files\\TortoiseGit\\bin\\api-ms-win-core-processthreads-l1-1-0.dll',
   'BINARY'),
  ('api-ms-win-core-interlocked-l1-1-0.dll',
   'C:\\Program '
   'Files\\TortoiseGit\\bin\\api-ms-win-core-interlocked-l1-1-0.dll',
   'BINARY'),
  ('api-ms-win-core-debug-l1-1-0.dll',
   'C:\\Program Files\\TortoiseGit\\bin\\api-ms-win-core-debug-l1-1-0.dll',
   'BINARY'),
  ('api-ms-win-core-memory-l1-1-0.dll',
   'C:\\Program Files\\TortoiseGit\\bin\\api-ms-win-core-memory-l1-1-0.dll',
   'BINARY'),
  ('api-ms-win-core-datetime-l1-1-0.dll',
   'C:\\Program Files\\TortoiseGit\\bin\\api-ms-win-core-datetime-l1-1-0.dll',
   'BINARY'),
  ('api-ms-win-core-errorhandling-l1-1-0.dll',
   'C:\\Program '
   'Files\\TortoiseGit\\bin\\api-ms-win-core-errorhandling-l1-1-0.dll',
   'BINARY'),
  ('api-ms-win-core-rtlsupport-l1-1-0.dll',
   'C:\\Program Files\\TortoiseGit\\bin\\api-ms-win-core-rtlsupport-l1-1-0.dll',
   'BINARY'),
  ('api-ms-win-core-synch-l1-2-0.dll',
   'C:\\Program Files\\TortoiseGit\\bin\\api-ms-win-core-synch-l1-2-0.dll',
   'BINARY'),
  ('api-ms-win-core-processthreads-l1-1-1.dll',
   'C:\\Program '
   'Files\\TortoiseGit\\bin\\api-ms-win-core-processthreads-l1-1-1.dll',
   'BINARY'),
  ('api-ms-win-core-namedpipe-l1-1-0.dll',
   'C:\\Program Files\\TortoiseGit\\bin\\api-ms-win-core-namedpipe-l1-1-0.dll',
   'BINARY'),
  ('api-ms-win-core-libraryloader-l1-1-0.dll',
   'C:\\Program '
   'Files\\TortoiseGit\\bin\\api-ms-win-core-libraryloader-l1-1-0.dll',
   'BINARY'),
  ('api-ms-win-core-localization-l1-2-0.dll',
   'C:\\Program '
   'Files\\TortoiseGit\\bin\\api-ms-win-core-localization-l1-2-0.dll',
   'BINARY'),
  ('api-ms-win-core-string-l1-1-0.dll',
   'C:\\Program Files\\TortoiseGit\\bin\\api-ms-win-core-string-l1-1-0.dll',
   'BINARY'),
  ('api-ms-win-core-processenvironment-l1-1-0.dll',
   'C:\\Program '
   'Files\\TortoiseGit\\bin\\api-ms-win-core-processenvironment-l1-1-0.dll',
   'BINARY'),
  ('api-ms-win-core-console-l1-1-0.dll',
   'C:\\Program Files\\TortoiseGit\\bin\\api-ms-win-core-console-l1-1-0.dll',
   'BINARY'),
  ('api-ms-win-core-file-l1-1-0.dll',
   'C:\\Program Files\\TortoiseGit\\bin\\api-ms-win-core-file-l1-1-0.dll',
   'BINARY'),
  ('api-ms-win-core-util-l1-1-0.dll',
   'C:\\Program Files\\TortoiseGit\\bin\\api-ms-win-core-util-l1-1-0.dll',
   'BINARY'),
  ('api-ms-win-core-file-l2-1-0.dll',
   'C:\\Program Files\\TortoiseGit\\bin\\api-ms-win-core-file-l2-1-0.dll',
   'BINARY'),
  ('api-ms-win-core-profile-l1-1-0.dll',
   'C:\\Program Files\\TortoiseGit\\bin\\api-ms-win-core-profile-l1-1-0.dll',
   'BINARY'),
  ('api-ms-win-core-handle-l1-1-0.dll',
   'C:\\Program Files\\TortoiseGit\\bin\\api-ms-win-core-handle-l1-1-0.dll',
   'BINARY'),
  ('api-ms-win-core-sysinfo-l1-1-0.dll',
   'C:\\Program Files\\TortoiseGit\\bin\\api-ms-win-core-sysinfo-l1-1-0.dll',
   'BINARY'),
  ('api-ms-win-core-timezone-l1-1-0.dll',
   'C:\\Program Files\\TortoiseGit\\bin\\api-ms-win-core-timezone-l1-1-0.dll',
   'BINARY'),
  ('api-ms-win-core-synch-l1-1-0.dll',
   'C:\\Program Files\\TortoiseGit\\bin\\api-ms-win-core-synch-l1-1-0.dll',
   'BINARY'),
  ('api-ms-win-core-heap-l1-1-0.dll',
   'C:\\Program Files\\TortoiseGit\\bin\\api-ms-win-core-heap-l1-1-0.dll',
   'BINARY'),
  ('api-ms-win-core-file-l1-2-0.dll',
   'C:\\Program Files\\TortoiseGit\\bin\\api-ms-win-core-file-l1-2-0.dll',
   'BINARY'),
  ('select',
   'C:\\Users\\wujin\\AppData\\Local\\Programs\\Python\\Python310\\DLLs\\select.pyd',
   'EXTENSION'),
  ('_decimal',
   'C:\\Users\\wujin\\AppData\\Local\\Programs\\Python\\Python310\\DLLs\\_decimal.pyd',
   'EXTENSION'),
  ('_hashlib',
   'C:\\Users\\wujin\\AppData\\Local\\Programs\\Python\\Python310\\DLLs\\_hashlib.pyd',
   'EXTENSION'),
  ('_socket',
   'C:\\Users\\wujin\\AppData\\Local\\Programs\\Python\\Python310\\DLLs\\_socket.pyd',
   'EXTENSION'),
  ('_lzma',
   'C:\\Users\\wujin\\AppData\\Local\\Programs\\Python\\Python310\\DLLs\\_lzma.pyd',
   'EXTENSION'),
  ('_bz2',
   'C:\\Users\\wujin\\AppData\\Local\\Programs\\Python\\Python310\\DLLs\\_bz2.pyd',
   'EXTENSION'),
  ('_ssl',
   'C:\\Users\\wujin\\AppData\\Local\\Programs\\Python\\Python310\\DLLs\\_ssl.pyd',
   'EXTENSION'),
  ('unicodedata',
   'C:\\Users\\wujin\\AppData\\Local\\Programs\\Python\\Python310\\DLLs\\unicodedata.pyd',
   'EXTENSION'),
  ('_elementtree',
   'C:\\Users\\wujin\\AppData\\Local\\Programs\\Python\\Python310\\DLLs\\_elementtree.pyd',
   'EXTENSION'),
  ('pyexpat',
   'C:\\Users\\wujin\\AppData\\Local\\Programs\\Python\\Python310\\DLLs\\pyexpat.pyd',
   'EXTENSION'),
  ('libcrypto-1_1.dll',
   'C:\\Users\\wujin\\AppData\\Local\\Programs\\Python\\Python310\\DLLs\\libcrypto-1_1.dll',
   'BINARY'),
  ('libssl-1_1.dll',
   'C:\\Users\\wujin\\AppData\\Local\\Programs\\Python\\Python310\\DLLs\\libssl-1_1.dll',
   'BINARY'),
  ('api-ms-win-crt-utility-l1-1-0.dll',
   'C:\\Program Files\\TortoiseGit\\bin\\api-ms-win-crt-utility-l1-1-0.dll',
   'BINARY')],
 [],
 [],
 [('base_library.zip',
   'D:\\__8888__Project\\person\\python_exercise\\build\\asn_to_xml\\base_library.zip',
   'DATA')],
 [])
